<?xml version="1.0" encoding="utf-8" standalone="no"?>
<!DOCTYPE svg PUBLIC "-//W3C//DTD SVG 1.1//EN"
  "http://www.w3.org/Graphics/SVG/1.1/DTD/svg11.dtd">
<svg xmlns:xlink="http://www.w3.org/1999/xlink" width="504pt" height="360pt" viewBox="0 0 504 360" xmlns="http://www.w3.org/2000/svg" version="1.1">
 <metadata>
  <rdf:RDF xmlns:dc="http://purl.org/dc/elements/1.1/" xmlns:cc="http://creativecommons.org/ns#" xmlns:rdf="http://www.w3.org/1999/02/22-rdf-syntax-ns#">
   <cc:Work>
    <dc:type rdf:resource="http://purl.org/dc/dcmitype/StillImage"/>
    <dc:date>2023-07-12T14:25:43.922495</dc:date>
    <dc:format>image/svg+xml</dc:format>
    <dc:creator>
     <cc:Agent>
      <dc:title>Matplotlib v3.7.1, https://matplotlib.org/</dc:title>
     </cc:Agent>
    </dc:creator>
   </cc:Work>
  </rdf:RDF>
 </metadata>
 <defs>
  <style type="text/css">*{stroke-linejoin: round; stroke-linecap: butt}</style>
 </defs>
 <g id="figure_1">
  <g id="patch_1">
   <path d="M 0 360 
L 504 360 
L 504 0 
L 0 0 
z
" style="fill: #ffffff"/>
  </g>
  <g id="axes_1">
   <g id="patch_2">
    <path d="M 55.55 315.71 
L 405.67 315.71 
L 405.67 10.8 
L 55.55 10.8 
z
" style="fill: #ffffff"/>
   </g>
   <g id="QuadMesh_1">
    <path d="M 55.55 315.71 
L 78.891333 315.71 
L 78.891333 295.382667 
L 55.55 295.382667 
L 55.55 315.71 
" clip-path="url(#pcefcf9a1a1)" style="fill: #edd1c2"/>
    <path d="M 78.891333 315.71 
L 102.232667 315.71 
L 102.232667 295.382667 
L 78.891333 295.382667 
L 78.891333 315.71 
" clip-path="url(#pcefcf9a1a1)" style="fill: #dfdbd9"/>
    <path d="M 102.232667 315.71 
L 125.574 315.71 
L 125.574 295.382667 
L 102.232667 295.382667 
L 102.232667 315.71 
" clip-path="url(#pcefcf9a1a1)" style="fill: #cedaeb"/>
    <path d="M 125.574 315.71 
L 148.915333 315.71 
L 148.915333 295.382667 
L 125.574 295.382667 
L 125.574 315.71 
" clip-path="url(#pcefcf9a1a1)" style="fill: #bcd2f7"/>
    <path d="M 148.915333 315.71 
L 172.256667 315.71 
L 172.256667 295.382667 
L 148.915333 295.382667 
L 148.915333 315.71 
" clip-path="url(#pcefcf9a1a1)" style="fill: #a9c6fd"/>
    <path d="M 172.256667 315.71 
L 195.598 315.71 
L 195.598 295.382667 
L 172.256667 295.382667 
L 172.256667 315.71 
" clip-path="url(#pcefcf9a1a1)" style="fill: #93b5fe"/>
    <path d="M 195.598 315.71 
L 218.939333 315.71 
L 218.939333 295.382667 
L 195.598 295.382667 
L 195.598 315.71 
" clip-path="url(#pcefcf9a1a1)" style="fill: #7da0f9"/>
    <path d="M 218.939333 315.71 
L 242.280667 315.71 
L 242.280667 295.382667 
L 218.939333 295.382667 
L 218.939333 315.71 
" clip-path="url(#pcefcf9a1a1)" style="fill: #6b8df0"/>
    <path d="M 242.280667 315.71 
L 265.622 315.71 
L 265.622 295.382667 
L 242.280667 295.382667 
L 242.280667 315.71 
" clip-path="url(#pcefcf9a1a1)" style="fill: #5d7ce6"/>
    <path d="M 265.622 315.71 
L 288.963333 315.71 
L 288.963333 295.382667 
L 265.622 295.382667 
L 265.622 315.71 
" clip-path="url(#pcefcf9a1a1)" style="fill: #5470de"/>
    <path d="M 288.963333 315.71 
L 312.304667 315.71 
L 312.304667 295.382667 
L 288.963333 295.382667 
L 288.963333 315.71 
" clip-path="url(#pcefcf9a1a1)" style="fill: #5673e0"/>
    <path d="M 312.304667 315.71 
L 335.646 315.71 
L 335.646 295.382667 
L 312.304667 295.382667 
L 312.304667 315.71 
" clip-path="url(#pcefcf9a1a1)" style="fill: #6180e9"/>
    <path d="M 335.646 315.71 
L 358.987333 315.71 
L 358.987333 295.382667 
L 335.646 295.382667 
L 335.646 315.71 
" clip-path="url(#pcefcf9a1a1)" style="fill: #6f92f3"/>
    <path d="M 358.987333 315.71 
L 382.328667 315.71 
L 382.328667 295.382667 
L 358.987333 295.382667 
L 358.987333 315.71 
" clip-path="url(#pcefcf9a1a1)" style="fill: #7da0f9"/>
    <path d="M 382.328667 315.71 
L 405.67 315.71 
L 405.67 295.382667 
L 382.328667 295.382667 
L 382.328667 315.71 
" clip-path="url(#pcefcf9a1a1)" style="fill: #8fb1fe"/>
    <path d="M 55.55 295.382667 
L 78.891333 295.382667 
L 78.891333 275.055333 
L 55.55 275.055333 
L 55.55 295.382667 
" clip-path="url(#pcefcf9a1a1)" style="fill: #edd2c3"/>
    <path d="M 78.891333 295.382667 
L 102.232667 295.382667 
L 102.232667 275.055333 
L 78.891333 275.055333 
L 78.891333 295.382667 
" clip-path="url(#pcefcf9a1a1)" style="fill: #dedcdb"/>
    <path d="M 102.232667 295.382667 
L 125.574 295.382667 
L 125.574 275.055333 
L 102.232667 275.055333 
L 102.232667 295.382667 
" clip-path="url(#pcefcf9a1a1)" style="fill: #cdd9ec"/>
    <path d="M 125.574 295.382667 
L 148.915333 295.382667 
L 148.915333 275.055333 
L 125.574 275.055333 
L 125.574 295.382667 
" clip-path="url(#pcefcf9a1a1)" style="fill: #b9d0f9"/>
    <path d="M 148.915333 295.382667 
L 172.256667 295.382667 
L 172.256667 275.055333 
L 148.915333 275.055333 
L 148.915333 295.382667 
" clip-path="url(#pcefcf9a1a1)" style="fill: #a3c2fe"/>
    <path d="M 172.256667 295.382667 
L 195.598 295.382667 
L 195.598 275.055333 
L 172.256667 275.055333 
L 172.256667 295.382667 
" clip-path="url(#pcefcf9a1a1)" style="fill: #8db0fe"/>
    <path d="M 195.598 295.382667 
L 218.939333 295.382667 
L 218.939333 275.055333 
L 195.598 275.055333 
L 195.598 295.382667 
" clip-path="url(#pcefcf9a1a1)" style="fill: #799cf8"/>
    <path d="M 218.939333 295.382667 
L 242.280667 295.382667 
L 242.280667 275.055333 
L 218.939333 275.055333 
L 218.939333 295.382667 
" clip-path="url(#pcefcf9a1a1)" style="fill: #6687ed"/>
    <path d="M 242.280667 295.382667 
L 265.622 295.382667 
L 265.622 275.055333 
L 242.280667 275.055333 
L 242.280667 295.382667 
" clip-path="url(#pcefcf9a1a1)" style="fill: #5673e0"/>
    <path d="M 265.622 295.382667 
L 288.963333 295.382667 
L 288.963333 275.055333 
L 265.622 275.055333 
L 265.622 295.382667 
" clip-path="url(#pcefcf9a1a1)" style="fill: #4a63d3"/>
    <path d="M 288.963333 295.382667 
L 312.304667 295.382667 
L 312.304667 275.055333 
L 288.963333 275.055333 
L 288.963333 295.382667 
" clip-path="url(#pcefcf9a1a1)" style="fill: #485fd1"/>
    <path d="M 312.304667 295.382667 
L 335.646 295.382667 
L 335.646 275.055333 
L 312.304667 275.055333 
L 312.304667 295.382667 
" clip-path="url(#pcefcf9a1a1)" style="fill: #4e68d8"/>
    <path d="M 335.646 295.382667 
L 358.987333 295.382667 
L 358.987333 275.055333 
L 335.646 275.055333 
L 335.646 295.382667 
" clip-path="url(#pcefcf9a1a1)" style="fill: #5b7ae5"/>
    <path d="M 358.987333 295.382667 
L 382.328667 295.382667 
L 382.328667 275.055333 
L 358.987333 275.055333 
L 358.987333 295.382667 
" clip-path="url(#pcefcf9a1a1)" style="fill: #6b8df0"/>
    <path d="M 382.328667 295.382667 
L 405.67 295.382667 
L 405.67 275.055333 
L 382.328667 275.055333 
L 382.328667 295.382667 
" clip-path="url(#pcefcf9a1a1)" style="fill: #7b9ff9"/>
    <path d="M 55.55 275.055333 
L 78.891333 275.055333 
L 78.891333 254.728 
L 55.55 254.728 
L 55.55 275.055333 
" clip-path="url(#pcefcf9a1a1)" style="fill: #edd2c3"/>
    <path d="M 78.891333 275.055333 
L 102.232667 275.055333 
L 102.232667 254.728 
L 78.891333 254.728 
L 78.891333 275.055333 
" clip-path="url(#pcefcf9a1a1)" style="fill: #dedcdb"/>
    <path d="M 102.232667 275.055333 
L 125.574 275.055333 
L 125.574 254.728 
L 102.232667 254.728 
L 102.232667 275.055333 
" clip-path="url(#pcefcf9a1a1)" style="fill: #cdd9ec"/>
    <path d="M 125.574 275.055333 
L 148.915333 275.055333 
L 148.915333 254.728 
L 125.574 254.728 
L 125.574 275.055333 
" clip-path="url(#pcefcf9a1a1)" style="fill: #b9d0f9"/>
    <path d="M 148.915333 275.055333 
L 172.256667 275.055333 
L 172.256667 254.728 
L 148.915333 254.728 
L 148.915333 275.055333 
" clip-path="url(#pcefcf9a1a1)" style="fill: #a2c1ff"/>
    <path d="M 172.256667 275.055333 
L 195.598 275.055333 
L 195.598 254.728 
L 172.256667 254.728 
L 172.256667 275.055333 
" clip-path="url(#pcefcf9a1a1)" style="fill: #8caffe"/>
    <path d="M 195.598 275.055333 
L 218.939333 275.055333 
L 218.939333 254.728 
L 195.598 254.728 
L 195.598 275.055333 
" clip-path="url(#pcefcf9a1a1)" style="fill: #799cf8"/>
    <path d="M 218.939333 275.055333 
L 242.280667 275.055333 
L 242.280667 254.728 
L 218.939333 254.728 
L 218.939333 275.055333 
" clip-path="url(#pcefcf9a1a1)" style="fill: #6485ec"/>
    <path d="M 242.280667 275.055333 
L 265.622 275.055333 
L 265.622 254.728 
L 242.280667 254.728 
L 242.280667 275.055333 
" clip-path="url(#pcefcf9a1a1)" style="fill: #5470de"/>
    <path d="M 265.622 275.055333 
L 288.963333 275.055333 
L 288.963333 254.728 
L 265.622 254.728 
L 265.622 275.055333 
" clip-path="url(#pcefcf9a1a1)" style="fill: #445acc"/>
    <path d="M 288.963333 275.055333 
L 312.304667 275.055333 
L 312.304667 254.728 
L 288.963333 254.728 
L 288.963333 275.055333 
" clip-path="url(#pcefcf9a1a1)" style="fill: #3e51c5"/>
    <path d="M 312.304667 275.055333 
L 335.646 275.055333 
L 335.646 254.728 
L 312.304667 254.728 
L 312.304667 275.055333 
" clip-path="url(#pcefcf9a1a1)" style="fill: #4257c9"/>
    <path d="M 335.646 275.055333 
L 358.987333 275.055333 
L 358.987333 254.728 
L 335.646 254.728 
L 335.646 275.055333 
" clip-path="url(#pcefcf9a1a1)" style="fill: #4e68d8"/>
    <path d="M 358.987333 275.055333 
L 382.328667 275.055333 
L 382.328667 254.728 
L 358.987333 254.728 
L 358.987333 275.055333 
" clip-path="url(#pcefcf9a1a1)" style="fill: #5b7ae5"/>
    <path d="M 382.328667 275.055333 
L 405.67 275.055333 
L 405.67 254.728 
L 382.328667 254.728 
L 382.328667 275.055333 
" clip-path="url(#pcefcf9a1a1)" style="fill: #6c8ff1"/>
    <path d="M 55.55 254.728 
L 78.891333 254.728 
L 78.891333 234.400667 
L 55.55 234.400667 
L 55.55 254.728 
" clip-path="url(#pcefcf9a1a1)" style="fill: #edd1c2"/>
    <path d="M 78.891333 254.728 
L 102.232667 254.728 
L 102.232667 234.400667 
L 78.891333 234.400667 
L 78.891333 254.728 
" clip-path="url(#pcefcf9a1a1)" style="fill: #e0dbd8"/>
    <path d="M 102.232667 254.728 
L 125.574 254.728 
L 125.574 234.400667 
L 102.232667 234.400667 
L 102.232667 254.728 
" clip-path="url(#pcefcf9a1a1)" style="fill: #cfdaea"/>
    <path d="M 125.574 254.728 
L 148.915333 254.728 
L 148.915333 234.400667 
L 125.574 234.400667 
L 125.574 254.728 
" clip-path="url(#pcefcf9a1a1)" style="fill: #bcd2f7"/>
    <path d="M 148.915333 254.728 
L 172.256667 254.728 
L 172.256667 234.400667 
L 148.915333 234.400667 
L 148.915333 254.728 
" clip-path="url(#pcefcf9a1a1)" style="fill: #a7c5fe"/>
    <path d="M 172.256667 254.728 
L 195.598 254.728 
L 195.598 234.400667 
L 172.256667 234.400667 
L 172.256667 254.728 
" clip-path="url(#pcefcf9a1a1)" style="fill: #92b4fe"/>
    <path d="M 195.598 254.728 
L 218.939333 254.728 
L 218.939333 234.400667 
L 195.598 234.400667 
L 195.598 254.728 
" clip-path="url(#pcefcf9a1a1)" style="fill: #7da0f9"/>
    <path d="M 218.939333 254.728 
L 242.280667 254.728 
L 242.280667 234.400667 
L 218.939333 234.400667 
L 218.939333 254.728 
" clip-path="url(#pcefcf9a1a1)" style="fill: #6a8bef"/>
    <path d="M 242.280667 254.728 
L 265.622 254.728 
L 265.622 234.400667 
L 242.280667 234.400667 
L 242.280667 254.728 
" clip-path="url(#pcefcf9a1a1)" style="fill: #5470de"/>
    <path d="M 265.622 254.728 
L 288.963333 254.728 
L 288.963333 234.400667 
L 265.622 234.400667 
L 265.622 254.728 
" clip-path="url(#pcefcf9a1a1)" style="fill: #4257c9"/>
    <path d="M 288.963333 254.728 
L 312.304667 254.728 
L 312.304667 234.400667 
L 288.963333 234.400667 
L 288.963333 254.728 
" clip-path="url(#pcefcf9a1a1)" style="fill: #3b4cc0"/>
    <path d="M 312.304667 254.728 
L 335.646 254.728 
L 335.646 234.400667 
L 312.304667 234.400667 
L 312.304667 254.728 
" clip-path="url(#pcefcf9a1a1)" style="fill: #3d50c3"/>
    <path d="M 335.646 254.728 
L 358.987333 254.728 
L 358.987333 234.400667 
L 335.646 234.400667 
L 335.646 254.728 
" clip-path="url(#pcefcf9a1a1)" style="fill: #455cce"/>
    <path d="M 358.987333 254.728 
L 382.328667 254.728 
L 382.328667 234.400667 
L 358.987333 234.400667 
L 358.987333 254.728 
" clip-path="url(#pcefcf9a1a1)" style="fill: #516ddb"/>
    <path d="M 382.328667 254.728 
L 405.67 254.728 
L 405.67 234.400667 
L 382.328667 234.400667 
L 382.328667 254.728 
" clip-path="url(#pcefcf9a1a1)" style="fill: #6180e9"/>
    <path d="M 55.55 234.400667 
L 78.891333 234.400667 
L 78.891333 214.073333 
L 55.55 214.073333 
L 55.55 234.400667 
" clip-path="url(#pcefcf9a1a1)" style="fill: #efcebd"/>
    <path d="M 78.891333 234.400667 
L 102.232667 234.400667 
L 102.232667 214.073333 
L 78.891333 214.073333 
L 78.891333 234.400667 
" clip-path="url(#pcefcf9a1a1)" style="fill: #e3d9d3"/>
    <path d="M 102.232667 234.400667 
L 125.574 234.400667 
L 125.574 214.073333 
L 102.232667 214.073333 
L 102.232667 234.400667 
" clip-path="url(#pcefcf9a1a1)" style="fill: #d4dbe6"/>
    <path d="M 125.574 234.400667 
L 148.915333 234.400667 
L 148.915333 214.073333 
L 125.574 214.073333 
L 125.574 234.400667 
" clip-path="url(#pcefcf9a1a1)" style="fill: #c3d5f4"/>
    <path d="M 148.915333 234.400667 
L 172.256667 234.400667 
L 172.256667 214.073333 
L 148.915333 214.073333 
L 148.915333 234.400667 
" clip-path="url(#pcefcf9a1a1)" style="fill: #b1cbfc"/>
    <path d="M 172.256667 234.400667 
L 195.598 234.400667 
L 195.598 214.073333 
L 172.256667 214.073333 
L 172.256667 234.400667 
" clip-path="url(#pcefcf9a1a1)" style="fill: #9dbdff"/>
    <path d="M 195.598 234.400667 
L 218.939333 234.400667 
L 218.939333 214.073333 
L 195.598 214.073333 
L 195.598 234.400667 
" clip-path="url(#pcefcf9a1a1)" style="fill: #88abfd"/>
    <path d="M 218.939333 234.400667 
L 242.280667 234.400667 
L 242.280667 214.073333 
L 218.939333 214.073333 
L 218.939333 234.400667 
" clip-path="url(#pcefcf9a1a1)" style="fill: #7093f3"/>
    <path d="M 242.280667 234.400667 
L 265.622 234.400667 
L 265.622 214.073333 
L 242.280667 214.073333 
L 242.280667 234.400667 
" clip-path="url(#pcefcf9a1a1)" style="fill: #5977e3"/>
    <path d="M 265.622 234.400667 
L 288.963333 234.400667 
L 288.963333 214.073333 
L 265.622 214.073333 
L 265.622 234.400667 
" clip-path="url(#pcefcf9a1a1)" style="fill: #455cce"/>
    <path d="M 288.963333 234.400667 
L 312.304667 234.400667 
L 312.304667 214.073333 
L 288.963333 214.073333 
L 288.963333 234.400667 
" clip-path="url(#pcefcf9a1a1)" style="fill: #3d50c3"/>
    <path d="M 312.304667 234.400667 
L 335.646 234.400667 
L 335.646 214.073333 
L 312.304667 214.073333 
L 312.304667 234.400667 
" clip-path="url(#pcefcf9a1a1)" style="fill: #3d50c3"/>
    <path d="M 335.646 234.400667 
L 358.987333 234.400667 
L 358.987333 214.073333 
L 335.646 214.073333 
L 335.646 234.400667 
" clip-path="url(#pcefcf9a1a1)" style="fill: #4358cb"/>
    <path d="M 358.987333 234.400667 
L 382.328667 234.400667 
L 382.328667 214.073333 
L 358.987333 214.073333 
L 358.987333 234.400667 
" clip-path="url(#pcefcf9a1a1)" style="fill: #4e68d8"/>
    <path d="M 382.328667 234.400667 
L 405.67 234.400667 
L 405.67 214.073333 
L 382.328667 214.073333 
L 382.328667 234.400667 
" clip-path="url(#pcefcf9a1a1)" style="fill: #5b7ae5"/>
    <path d="M 55.55 214.073333 
L 78.891333 214.073333 
L 78.891333 193.746 
L 55.55 193.746 
L 55.55 214.073333 
" clip-path="url(#pcefcf9a1a1)" style="fill: #f2cbb7"/>
    <path d="M 78.891333 214.073333 
L 102.232667 214.073333 
L 102.232667 193.746 
L 78.891333 193.746 
L 78.891333 214.073333 
" clip-path="url(#pcefcf9a1a1)" style="fill: #e8d6cc"/>
    <path d="M 102.232667 214.073333 
L 125.574 214.073333 
L 125.574 193.746 
L 102.232667 193.746 
L 102.232667 214.073333 
" clip-path="url(#pcefcf9a1a1)" style="fill: #dadce0"/>
    <path d="M 125.574 214.073333 
L 148.915333 214.073333 
L 148.915333 193.746 
L 125.574 193.746 
L 125.574 214.073333 
" clip-path="url(#pcefcf9a1a1)" style="fill: #ccd9ed"/>
    <path d="M 148.915333 214.073333 
L 172.256667 214.073333 
L 172.256667 193.746 
L 148.915333 193.746 
L 148.915333 214.073333 
" clip-path="url(#pcefcf9a1a1)" style="fill: #bed2f6"/>
    <path d="M 172.256667 214.073333 
L 195.598 214.073333 
L 195.598 193.746 
L 172.256667 193.746 
L 172.256667 214.073333 
" clip-path="url(#pcefcf9a1a1)" style="fill: #adc9fd"/>
    <path d="M 195.598 214.073333 
L 218.939333 214.073333 
L 218.939333 193.746 
L 195.598 193.746 
L 195.598 214.073333 
" clip-path="url(#pcefcf9a1a1)" style="fill: #97b8ff"/>
    <path d="M 218.939333 214.073333 
L 242.280667 214.073333 
L 242.280667 193.746 
L 218.939333 193.746 
L 218.939333 214.073333 
" clip-path="url(#pcefcf9a1a1)" style="fill: #7da0f9"/>
    <path d="M 242.280667 214.073333 
L 265.622 214.073333 
L 265.622 193.746 
L 242.280667 193.746 
L 242.280667 214.073333 
" clip-path="url(#pcefcf9a1a1)" style="fill: #6384eb"/>
    <path d="M 265.622 214.073333 
L 288.963333 214.073333 
L 288.963333 193.746 
L 265.622 193.746 
L 265.622 214.073333 
" clip-path="url(#pcefcf9a1a1)" style="fill: #506bda"/>
    <path d="M 288.963333 214.073333 
L 312.304667 214.073333 
L 312.304667 193.746 
L 288.963333 193.746 
L 288.963333 214.073333 
" clip-path="url(#pcefcf9a1a1)" style="fill: #455cce"/>
    <path d="M 312.304667 214.073333 
L 335.646 214.073333 
L 335.646 193.746 
L 312.304667 193.746 
L 312.304667 214.073333 
" clip-path="url(#pcefcf9a1a1)" style="fill: #4358cb"/>
    <path d="M 335.646 214.073333 
L 358.987333 214.073333 
L 358.987333 193.746 
L 335.646 193.746 
L 335.646 214.073333 
" clip-path="url(#pcefcf9a1a1)" style="fill: #465ecf"/>
    <path d="M 358.987333 214.073333 
L 382.328667 214.073333 
L 382.328667 193.746 
L 358.987333 193.746 
L 358.987333 214.073333 
" clip-path="url(#pcefcf9a1a1)" style="fill: #4f69d9"/>
    <path d="M 382.328667 214.073333 
L 405.67 214.073333 
L 405.67 193.746 
L 382.328667 193.746 
L 382.328667 214.073333 
" clip-path="url(#pcefcf9a1a1)" style="fill: #5a78e4"/>
    <path d="M 55.55 193.746 
L 78.891333 193.746 
L 78.891333 173.418667 
L 55.55 173.418667 
L 55.55 193.746 
" clip-path="url(#pcefcf9a1a1)" style="fill: #f4c5ad"/>
    <path d="M 78.891333 193.746 
L 102.232667 193.746 
L 102.232667 173.418667 
L 78.891333 173.418667 
L 78.891333 193.746 
" clip-path="url(#pcefcf9a1a1)" style="fill: #edd1c2"/>
    <path d="M 102.232667 193.746 
L 125.574 193.746 
L 125.574 173.418667 
L 102.232667 173.418667 
L 102.232667 193.746 
" clip-path="url(#pcefcf9a1a1)" style="fill: #e3d9d3"/>
    <path d="M 125.574 193.746 
L 148.915333 193.746 
L 148.915333 173.418667 
L 125.574 173.418667 
L 125.574 193.746 
" clip-path="url(#pcefcf9a1a1)" style="fill: #d8dce2"/>
    <path d="M 148.915333 193.746 
L 172.256667 193.746 
L 172.256667 173.418667 
L 148.915333 173.418667 
L 148.915333 193.746 
" clip-path="url(#pcefcf9a1a1)" style="fill: #cdd9ec"/>
    <path d="M 172.256667 193.746 
L 195.598 193.746 
L 195.598 173.418667 
L 172.256667 173.418667 
L 172.256667 193.746 
" clip-path="url(#pcefcf9a1a1)" style="fill: #bfd3f6"/>
    <path d="M 195.598 193.746 
L 218.939333 193.746 
L 218.939333 173.418667 
L 195.598 173.418667 
L 195.598 193.746 
" clip-path="url(#pcefcf9a1a1)" style="fill: #aac7fd"/>
    <path d="M 218.939333 193.746 
L 242.280667 193.746 
L 242.280667 173.418667 
L 218.939333 173.418667 
L 218.939333 193.746 
" clip-path="url(#pcefcf9a1a1)" style="fill: #8fb1fe"/>
    <path d="M 242.280667 193.746 
L 265.622 193.746 
L 265.622 173.418667 
L 242.280667 173.418667 
L 242.280667 193.746 
" clip-path="url(#pcefcf9a1a1)" style="fill: #7699f6"/>
    <path d="M 265.622 193.746 
L 288.963333 193.746 
L 288.963333 173.418667 
L 265.622 173.418667 
L 265.622 193.746 
" clip-path="url(#pcefcf9a1a1)" style="fill: #6282ea"/>
    <path d="M 288.963333 193.746 
L 312.304667 193.746 
L 312.304667 173.418667 
L 288.963333 173.418667 
L 288.963333 193.746 
" clip-path="url(#pcefcf9a1a1)" style="fill: #5572df"/>
    <path d="M 312.304667 193.746 
L 335.646 193.746 
L 335.646 173.418667 
L 312.304667 173.418667 
L 312.304667 193.746 
" clip-path="url(#pcefcf9a1a1)" style="fill: #506bda"/>
    <path d="M 335.646 193.746 
L 358.987333 193.746 
L 358.987333 173.418667 
L 335.646 173.418667 
L 335.646 193.746 
" clip-path="url(#pcefcf9a1a1)" style="fill: #516ddb"/>
    <path d="M 358.987333 193.746 
L 382.328667 193.746 
L 382.328667 173.418667 
L 358.987333 173.418667 
L 358.987333 193.746 
" clip-path="url(#pcefcf9a1a1)" style="fill: #5875e1"/>
    <path d="M 382.328667 193.746 
L 405.67 193.746 
L 405.67 173.418667 
L 382.328667 173.418667 
L 382.328667 193.746 
" clip-path="url(#pcefcf9a1a1)" style="fill: #5f7fe8"/>
    <path d="M 55.55 173.418667 
L 78.891333 173.418667 
L 78.891333 153.091333 
L 55.55 153.091333 
L 55.55 173.418667 
" clip-path="url(#pcefcf9a1a1)" style="fill: #f6bda2"/>
    <path d="M 78.891333 173.418667 
L 102.232667 173.418667 
L 102.232667 153.091333 
L 78.891333 153.091333 
L 78.891333 173.418667 
" clip-path="url(#pcefcf9a1a1)" style="fill: #f2c9b4"/>
    <path d="M 102.232667 173.418667 
L 125.574 173.418667 
L 125.574 153.091333 
L 102.232667 153.091333 
L 102.232667 173.418667 
" clip-path="url(#pcefcf9a1a1)" style="fill: #edd2c3"/>
    <path d="M 125.574 173.418667 
L 148.915333 173.418667 
L 148.915333 153.091333 
L 125.574 153.091333 
L 125.574 173.418667 
" clip-path="url(#pcefcf9a1a1)" style="fill: #e5d8d1"/>
    <path d="M 148.915333 173.418667 
L 172.256667 173.418667 
L 172.256667 153.091333 
L 148.915333 153.091333 
L 148.915333 173.418667 
" clip-path="url(#pcefcf9a1a1)" style="fill: #dcdddd"/>
    <path d="M 172.256667 173.418667 
L 195.598 173.418667 
L 195.598 153.091333 
L 172.256667 153.091333 
L 172.256667 173.418667 
" clip-path="url(#pcefcf9a1a1)" style="fill: #d1dae9"/>
    <path d="M 195.598 173.418667 
L 218.939333 173.418667 
L 218.939333 153.091333 
L 195.598 153.091333 
L 195.598 173.418667 
" clip-path="url(#pcefcf9a1a1)" style="fill: #bed2f6"/>
    <path d="M 218.939333 173.418667 
L 242.280667 173.418667 
L 242.280667 153.091333 
L 218.939333 153.091333 
L 218.939333 173.418667 
" clip-path="url(#pcefcf9a1a1)" style="fill: #a5c3fe"/>
    <path d="M 242.280667 173.418667 
L 265.622 173.418667 
L 265.622 153.091333 
L 242.280667 153.091333 
L 242.280667 173.418667 
" clip-path="url(#pcefcf9a1a1)" style="fill: #8fb1fe"/>
    <path d="M 265.622 173.418667 
L 288.963333 173.418667 
L 288.963333 153.091333 
L 265.622 153.091333 
L 265.622 173.418667 
" clip-path="url(#pcefcf9a1a1)" style="fill: #7a9df8"/>
    <path d="M 288.963333 173.418667 
L 312.304667 173.418667 
L 312.304667 153.091333 
L 288.963333 153.091333 
L 288.963333 173.418667 
" clip-path="url(#pcefcf9a1a1)" style="fill: #6b8df0"/>
    <path d="M 312.304667 173.418667 
L 335.646 173.418667 
L 335.646 153.091333 
L 312.304667 153.091333 
L 312.304667 173.418667 
" clip-path="url(#pcefcf9a1a1)" style="fill: #6384eb"/>
    <path d="M 335.646 173.418667 
L 358.987333 173.418667 
L 358.987333 153.091333 
L 335.646 153.091333 
L 335.646 173.418667 
" clip-path="url(#pcefcf9a1a1)" style="fill: #6180e9"/>
    <path d="M 358.987333 173.418667 
L 382.328667 173.418667 
L 382.328667 153.091333 
L 358.987333 153.091333 
L 358.987333 173.418667 
" clip-path="url(#pcefcf9a1a1)" style="fill: #6485ec"/>
    <path d="M 382.328667 173.418667 
L 405.67 173.418667 
L 405.67 153.091333 
L 382.328667 153.091333 
L 382.328667 173.418667 
" clip-path="url(#pcefcf9a1a1)" style="fill: #6a8bef"/>
    <path d="M 55.55 153.091333 
L 78.891333 153.091333 
L 78.891333 132.764 
L 55.55 132.764 
L 55.55 153.091333 
" clip-path="url(#pcefcf9a1a1)" style="fill: #f7af91"/>
    <path d="M 78.891333 153.091333 
L 102.232667 153.091333 
L 102.232667 132.764 
L 78.891333 132.764 
L 78.891333 153.091333 
" clip-path="url(#pcefcf9a1a1)" style="fill: #f7bca1"/>
    <path d="M 102.232667 153.091333 
L 125.574 153.091333 
L 125.574 132.764 
L 102.232667 132.764 
L 102.232667 153.091333 
" clip-path="url(#pcefcf9a1a1)" style="fill: #f4c6af"/>
    <path d="M 125.574 153.091333 
L 148.915333 153.091333 
L 148.915333 132.764 
L 125.574 132.764 
L 125.574 153.091333 
" clip-path="url(#pcefcf9a1a1)" style="fill: #f0cdbb"/>
    <path d="M 148.915333 153.091333 
L 172.256667 153.091333 
L 172.256667 132.764 
L 148.915333 132.764 
L 148.915333 153.091333 
" clip-path="url(#pcefcf9a1a1)" style="fill: #ead4c8"/>
    <path d="M 172.256667 153.091333 
L 195.598 153.091333 
L 195.598 132.764 
L 172.256667 132.764 
L 172.256667 153.091333 
" clip-path="url(#pcefcf9a1a1)" style="fill: #e0dbd8"/>
    <path d="M 195.598 153.091333 
L 218.939333 153.091333 
L 218.939333 132.764 
L 195.598 132.764 
L 195.598 153.091333 
" clip-path="url(#pcefcf9a1a1)" style="fill: #d1dae9"/>
    <path d="M 218.939333 153.091333 
L 242.280667 153.091333 
L 242.280667 132.764 
L 218.939333 132.764 
L 218.939333 153.091333 
" clip-path="url(#pcefcf9a1a1)" style="fill: #bed2f6"/>
    <path d="M 242.280667 153.091333 
L 265.622 153.091333 
L 265.622 132.764 
L 242.280667 132.764 
L 242.280667 153.091333 
" clip-path="url(#pcefcf9a1a1)" style="fill: #aac7fd"/>
    <path d="M 265.622 153.091333 
L 288.963333 153.091333 
L 288.963333 132.764 
L 265.622 132.764 
L 265.622 153.091333 
" clip-path="url(#pcefcf9a1a1)" style="fill: #97b8ff"/>
    <path d="M 288.963333 153.091333 
L 312.304667 153.091333 
L 312.304667 132.764 
L 288.963333 132.764 
L 288.963333 153.091333 
" clip-path="url(#pcefcf9a1a1)" style="fill: #85a8fc"/>
    <path d="M 312.304667 153.091333 
L 335.646 153.091333 
L 335.646 132.764 
L 312.304667 132.764 
L 312.304667 153.091333 
" clip-path="url(#pcefcf9a1a1)" style="fill: #7a9df8"/>
    <path d="M 335.646 153.091333 
L 358.987333 153.091333 
L 358.987333 132.764 
L 335.646 132.764 
L 335.646 153.091333 
" clip-path="url(#pcefcf9a1a1)" style="fill: #7699f6"/>
    <path d="M 358.987333 153.091333 
L 382.328667 153.091333 
L 382.328667 132.764 
L 358.987333 132.764 
L 358.987333 153.091333 
" clip-path="url(#pcefcf9a1a1)" style="fill: #7699f6"/>
    <path d="M 382.328667 153.091333 
L 405.67 153.091333 
L 405.67 132.764 
L 382.328667 132.764 
L 382.328667 153.091333 
" clip-path="url(#pcefcf9a1a1)" style="fill: #779af7"/>
    <path d="M 55.55 132.764 
L 78.891333 132.764 
L 78.891333 112.436667 
L 55.55 112.436667 
L 55.55 132.764 
" clip-path="url(#pcefcf9a1a1)" style="fill: #f59f80"/>
    <path d="M 78.891333 132.764 
L 102.232667 132.764 
L 102.232667 112.436667 
L 78.891333 112.436667 
L 78.891333 132.764 
" clip-path="url(#pcefcf9a1a1)" style="fill: #f7aa8c"/>
    <path d="M 102.232667 132.764 
L 125.574 132.764 
L 125.574 112.436667 
L 102.232667 112.436667 
L 102.232667 132.764 
" clip-path="url(#pcefcf9a1a1)" style="fill: #f7b599"/>
    <path d="M 125.574 132.764 
L 148.915333 132.764 
L 148.915333 112.436667 
L 125.574 112.436667 
L 125.574 132.764 
" clip-path="url(#pcefcf9a1a1)" style="fill: #f6bea4"/>
    <path d="M 148.915333 132.764 
L 172.256667 132.764 
L 172.256667 112.436667 
L 148.915333 112.436667 
L 148.915333 132.764 
" clip-path="url(#pcefcf9a1a1)" style="fill: #f3c7b1"/>
    <path d="M 172.256667 132.764 
L 195.598 132.764 
L 195.598 112.436667 
L 172.256667 112.436667 
L 172.256667 132.764 
" clip-path="url(#pcefcf9a1a1)" style="fill: #edd1c2"/>
    <path d="M 195.598 132.764 
L 218.939333 132.764 
L 218.939333 112.436667 
L 195.598 112.436667 
L 195.598 132.764 
" clip-path="url(#pcefcf9a1a1)" style="fill: #e3d9d3"/>
    <path d="M 218.939333 132.764 
L 242.280667 132.764 
L 242.280667 112.436667 
L 218.939333 112.436667 
L 218.939333 132.764 
" clip-path="url(#pcefcf9a1a1)" style="fill: #d5dbe5"/>
    <path d="M 242.280667 132.764 
L 265.622 132.764 
L 265.622 112.436667 
L 242.280667 112.436667 
L 242.280667 132.764 
" clip-path="url(#pcefcf9a1a1)" style="fill: #c5d6f2"/>
    <path d="M 265.622 132.764 
L 288.963333 132.764 
L 288.963333 112.436667 
L 265.622 112.436667 
L 265.622 132.764 
" clip-path="url(#pcefcf9a1a1)" style="fill: #b2ccfb"/>
    <path d="M 288.963333 132.764 
L 312.304667 132.764 
L 312.304667 112.436667 
L 288.963333 112.436667 
L 288.963333 132.764 
" clip-path="url(#pcefcf9a1a1)" style="fill: #a2c1ff"/>
    <path d="M 312.304667 132.764 
L 335.646 132.764 
L 335.646 112.436667 
L 312.304667 112.436667 
L 312.304667 132.764 
" clip-path="url(#pcefcf9a1a1)" style="fill: #94b6ff"/>
    <path d="M 335.646 132.764 
L 358.987333 132.764 
L 358.987333 112.436667 
L 335.646 112.436667 
L 335.646 132.764 
" clip-path="url(#pcefcf9a1a1)" style="fill: #8caffe"/>
    <path d="M 358.987333 132.764 
L 382.328667 132.764 
L 382.328667 112.436667 
L 358.987333 112.436667 
L 358.987333 132.764 
" clip-path="url(#pcefcf9a1a1)" style="fill: #89acfd"/>
    <path d="M 382.328667 132.764 
L 405.67 132.764 
L 405.67 112.436667 
L 382.328667 112.436667 
L 382.328667 132.764 
" clip-path="url(#pcefcf9a1a1)" style="fill: #88abfd"/>
    <path d="M 55.55 112.436667 
L 78.891333 112.436667 
L 78.891333 92.109333 
L 55.55 92.109333 
L 55.55 112.436667 
" clip-path="url(#pcefcf9a1a1)" style="fill: #f08a6c"/>
    <path d="M 78.891333 112.436667 
L 102.232667 112.436667 
L 102.232667 92.109333 
L 78.891333 92.109333 
L 78.891333 112.436667 
" clip-path="url(#pcefcf9a1a1)" style="fill: #f39778"/>
    <path d="M 102.232667 112.436667 
L 125.574 112.436667 
L 125.574 92.109333 
L 102.232667 92.109333 
L 102.232667 112.436667 
" clip-path="url(#pcefcf9a1a1)" style="fill: #f5a081"/>
    <path d="M 125.574 112.436667 
L 148.915333 112.436667 
L 148.915333 92.109333 
L 125.574 92.109333 
L 125.574 112.436667 
" clip-path="url(#pcefcf9a1a1)" style="fill: #f7aa8c"/>
    <path d="M 148.915333 112.436667 
L 172.256667 112.436667 
L 172.256667 92.109333 
L 148.915333 92.109333 
L 148.915333 112.436667 
" clip-path="url(#pcefcf9a1a1)" style="fill: #f7b599"/>
    <path d="M 172.256667 112.436667 
L 195.598 112.436667 
L 195.598 92.109333 
L 172.256667 92.109333 
L 172.256667 112.436667 
" clip-path="url(#pcefcf9a1a1)" style="fill: #f5c1a9"/>
    <path d="M 195.598 112.436667 
L 218.939333 112.436667 
L 218.939333 92.109333 
L 195.598 92.109333 
L 195.598 112.436667 
" clip-path="url(#pcefcf9a1a1)" style="fill: #f1ccb8"/>
    <path d="M 218.939333 112.436667 
L 242.280667 112.436667 
L 242.280667 92.109333 
L 218.939333 92.109333 
L 218.939333 112.436667 
" clip-path="url(#pcefcf9a1a1)" style="fill: #e9d5cb"/>
    <path d="M 242.280667 112.436667 
L 265.622 112.436667 
L 265.622 92.109333 
L 242.280667 92.109333 
L 242.280667 112.436667 
" clip-path="url(#pcefcf9a1a1)" style="fill: #dbdcde"/>
    <path d="M 265.622 112.436667 
L 288.963333 112.436667 
L 288.963333 92.109333 
L 265.622 92.109333 
L 265.622 112.436667 
" clip-path="url(#pcefcf9a1a1)" style="fill: #cdd9ec"/>
    <path d="M 288.963333 112.436667 
L 312.304667 112.436667 
L 312.304667 92.109333 
L 288.963333 92.109333 
L 288.963333 112.436667 
" clip-path="url(#pcefcf9a1a1)" style="fill: #bed2f6"/>
    <path d="M 312.304667 112.436667 
L 335.646 112.436667 
L 335.646 92.109333 
L 312.304667 92.109333 
L 312.304667 112.436667 
" clip-path="url(#pcefcf9a1a1)" style="fill: #afcafc"/>
    <path d="M 335.646 112.436667 
L 358.987333 112.436667 
L 358.987333 92.109333 
L 335.646 92.109333 
L 335.646 112.436667 
" clip-path="url(#pcefcf9a1a1)" style="fill: #a6c4fe"/>
    <path d="M 358.987333 112.436667 
L 382.328667 112.436667 
L 382.328667 92.109333 
L 358.987333 92.109333 
L 358.987333 112.436667 
" clip-path="url(#pcefcf9a1a1)" style="fill: #9fbfff"/>
    <path d="M 382.328667 112.436667 
L 405.67 112.436667 
L 405.67 92.109333 
L 382.328667 92.109333 
L 382.328667 112.436667 
" clip-path="url(#pcefcf9a1a1)" style="fill: #9bbcff"/>
    <path d="M 55.55 92.109333 
L 78.891333 92.109333 
L 78.891333 71.782 
L 55.55 71.782 
L 55.55 92.109333 
" clip-path="url(#pcefcf9a1a1)" style="fill: #e67259"/>
    <path d="M 78.891333 92.109333 
L 102.232667 92.109333 
L 102.232667 71.782 
L 78.891333 71.782 
L 78.891333 92.109333 
" clip-path="url(#pcefcf9a1a1)" style="fill: #eb7d62"/>
    <path d="M 102.232667 92.109333 
L 125.574 92.109333 
L 125.574 71.782 
L 102.232667 71.782 
L 102.232667 92.109333 
" clip-path="url(#pcefcf9a1a1)" style="fill: #f08a6c"/>
    <path d="M 125.574 92.109333 
L 148.915333 92.109333 
L 148.915333 71.782 
L 125.574 71.782 
L 125.574 92.109333 
" clip-path="url(#pcefcf9a1a1)" style="fill: #f39475"/>
    <path d="M 148.915333 92.109333 
L 172.256667 92.109333 
L 172.256667 71.782 
L 148.915333 71.782 
L 148.915333 92.109333 
" clip-path="url(#pcefcf9a1a1)" style="fill: #f5a081"/>
    <path d="M 172.256667 92.109333 
L 195.598 92.109333 
L 195.598 71.782 
L 172.256667 71.782 
L 172.256667 92.109333 
" clip-path="url(#pcefcf9a1a1)" style="fill: #f7ad90"/>
    <path d="M 195.598 92.109333 
L 218.939333 92.109333 
L 218.939333 71.782 
L 195.598 71.782 
L 195.598 92.109333 
" clip-path="url(#pcefcf9a1a1)" style="fill: #f7b89c"/>
    <path d="M 218.939333 92.109333 
L 242.280667 92.109333 
L 242.280667 71.782 
L 218.939333 71.782 
L 218.939333 92.109333 
" clip-path="url(#pcefcf9a1a1)" style="fill: #f4c5ad"/>
    <path d="M 242.280667 92.109333 
L 265.622 92.109333 
L 265.622 71.782 
L 242.280667 71.782 
L 242.280667 92.109333 
" clip-path="url(#pcefcf9a1a1)" style="fill: #edd1c2"/>
    <path d="M 265.622 92.109333 
L 288.963333 92.109333 
L 288.963333 71.782 
L 265.622 71.782 
L 265.622 92.109333 
" clip-path="url(#pcefcf9a1a1)" style="fill: #e2dad5"/>
    <path d="M 288.963333 92.109333 
L 312.304667 92.109333 
L 312.304667 71.782 
L 288.963333 71.782 
L 288.963333 92.109333 
" clip-path="url(#pcefcf9a1a1)" style="fill: #d6dce4"/>
    <path d="M 312.304667 92.109333 
L 335.646 92.109333 
L 335.646 71.782 
L 312.304667 71.782 
L 312.304667 92.109333 
" clip-path="url(#pcefcf9a1a1)" style="fill: #c9d7f0"/>
    <path d="M 335.646 92.109333 
L 358.987333 92.109333 
L 358.987333 71.782 
L 335.646 71.782 
L 335.646 92.109333 
" clip-path="url(#pcefcf9a1a1)" style="fill: #bed2f6"/>
    <path d="M 358.987333 92.109333 
L 382.328667 92.109333 
L 382.328667 71.782 
L 358.987333 71.782 
L 358.987333 92.109333 
" clip-path="url(#pcefcf9a1a1)" style="fill: #b6cefa"/>
    <path d="M 382.328667 92.109333 
L 405.67 92.109333 
L 405.67 71.782 
L 382.328667 71.782 
L 382.328667 92.109333 
" clip-path="url(#pcefcf9a1a1)" style="fill: #afcafc"/>
    <path d="M 55.55 71.782 
L 78.891333 71.782 
L 78.891333 51.454667 
L 55.55 51.454667 
L 55.55 71.782 
" clip-path="url(#pcefcf9a1a1)" style="fill: #d85646"/>
    <path d="M 78.891333 71.782 
L 102.232667 71.782 
L 102.232667 51.454667 
L 78.891333 51.454667 
L 78.891333 71.782 
" clip-path="url(#pcefcf9a1a1)" style="fill: #df634e"/>
    <path d="M 102.232667 71.782 
L 125.574 71.782 
L 125.574 51.454667 
L 102.232667 51.454667 
L 102.232667 71.782 
" clip-path="url(#pcefcf9a1a1)" style="fill: #e46e56"/>
    <path d="M 125.574 71.782 
L 148.915333 71.782 
L 148.915333 51.454667 
L 125.574 51.454667 
L 125.574 71.782 
" clip-path="url(#pcefcf9a1a1)" style="fill: #ea7b60"/>
    <path d="M 148.915333 71.782 
L 172.256667 71.782 
L 172.256667 51.454667 
L 148.915333 51.454667 
L 148.915333 71.782 
" clip-path="url(#pcefcf9a1a1)" style="fill: #ef886b"/>
    <path d="M 172.256667 71.782 
L 195.598 71.782 
L 195.598 51.454667 
L 172.256667 51.454667 
L 172.256667 71.782 
" clip-path="url(#pcefcf9a1a1)" style="fill: #f39475"/>
    <path d="M 195.598 71.782 
L 218.939333 71.782 
L 218.939333 51.454667 
L 195.598 51.454667 
L 195.598 71.782 
" clip-path="url(#pcefcf9a1a1)" style="fill: #f5a081"/>
    <path d="M 218.939333 71.782 
L 242.280667 71.782 
L 242.280667 51.454667 
L 218.939333 51.454667 
L 218.939333 71.782 
" clip-path="url(#pcefcf9a1a1)" style="fill: #f7af91"/>
    <path d="M 242.280667 71.782 
L 265.622 71.782 
L 265.622 51.454667 
L 242.280667 51.454667 
L 242.280667 71.782 
" clip-path="url(#pcefcf9a1a1)" style="fill: #f6bda2"/>
    <path d="M 265.622 71.782 
L 288.963333 71.782 
L 288.963333 51.454667 
L 265.622 51.454667 
L 265.622 71.782 
" clip-path="url(#pcefcf9a1a1)" style="fill: #f2cab5"/>
    <path d="M 288.963333 71.782 
L 312.304667 71.782 
L 312.304667 51.454667 
L 288.963333 51.454667 
L 288.963333 71.782 
" clip-path="url(#pcefcf9a1a1)" style="fill: #ead4c8"/>
    <path d="M 312.304667 71.782 
L 335.646 71.782 
L 335.646 51.454667 
L 312.304667 51.454667 
L 312.304667 71.782 
" clip-path="url(#pcefcf9a1a1)" style="fill: #dfdbd9"/>
    <path d="M 335.646 71.782 
L 358.987333 71.782 
L 358.987333 51.454667 
L 335.646 51.454667 
L 335.646 71.782 
" clip-path="url(#pcefcf9a1a1)" style="fill: #d4dbe6"/>
    <path d="M 358.987333 71.782 
L 382.328667 71.782 
L 382.328667 51.454667 
L 358.987333 51.454667 
L 358.987333 71.782 
" clip-path="url(#pcefcf9a1a1)" style="fill: #ccd9ed"/>
    <path d="M 382.328667 71.782 
L 405.67 71.782 
L 405.67 51.454667 
L 382.328667 51.454667 
L 382.328667 71.782 
" clip-path="url(#pcefcf9a1a1)" style="fill: #c6d6f1"/>
    <path d="M 55.55 51.454667 
L 78.891333 51.454667 
L 78.891333 31.127333 
L 55.55 31.127333 
L 55.55 51.454667 
" clip-path="url(#pcefcf9a1a1)" style="fill: #c73635"/>
    <path d="M 78.891333 51.454667 
L 102.232667 51.454667 
L 102.232667 31.127333 
L 78.891333 31.127333 
L 78.891333 51.454667 
" clip-path="url(#pcefcf9a1a1)" style="fill: #cf453c"/>
    <path d="M 102.232667 51.454667 
L 125.574 51.454667 
L 125.574 31.127333 
L 102.232667 31.127333 
L 102.232667 51.454667 
" clip-path="url(#pcefcf9a1a1)" style="fill: #d65244"/>
    <path d="M 125.574 51.454667 
L 148.915333 51.454667 
L 148.915333 31.127333 
L 125.574 31.127333 
L 125.574 51.454667 
" clip-path="url(#pcefcf9a1a1)" style="fill: #de614d"/>
    <path d="M 148.915333 51.454667 
L 172.256667 51.454667 
L 172.256667 31.127333 
L 148.915333 31.127333 
L 148.915333 51.454667 
" clip-path="url(#pcefcf9a1a1)" style="fill: #e36c55"/>
    <path d="M 172.256667 51.454667 
L 195.598 51.454667 
L 195.598 31.127333 
L 172.256667 31.127333 
L 172.256667 51.454667 
" clip-path="url(#pcefcf9a1a1)" style="fill: #e9785d"/>
    <path d="M 195.598 51.454667 
L 218.939333 51.454667 
L 218.939333 31.127333 
L 195.598 31.127333 
L 195.598 51.454667 
" clip-path="url(#pcefcf9a1a1)" style="fill: #ee8468"/>
    <path d="M 218.939333 51.454667 
L 242.280667 51.454667 
L 242.280667 31.127333 
L 218.939333 31.127333 
L 218.939333 51.454667 
" clip-path="url(#pcefcf9a1a1)" style="fill: #f39475"/>
    <path d="M 242.280667 51.454667 
L 265.622 51.454667 
L 265.622 31.127333 
L 242.280667 31.127333 
L 242.280667 51.454667 
" clip-path="url(#pcefcf9a1a1)" style="fill: #f6a385"/>
    <path d="M 265.622 51.454667 
L 288.963333 51.454667 
L 288.963333 31.127333 
L 265.622 31.127333 
L 265.622 51.454667 
" clip-path="url(#pcefcf9a1a1)" style="fill: #f7b497"/>
    <path d="M 288.963333 51.454667 
L 312.304667 51.454667 
L 312.304667 31.127333 
L 288.963333 31.127333 
L 288.963333 51.454667 
" clip-path="url(#pcefcf9a1a1)" style="fill: #f5c1a9"/>
    <path d="M 312.304667 51.454667 
L 335.646 51.454667 
L 335.646 31.127333 
L 312.304667 31.127333 
L 312.304667 51.454667 
" clip-path="url(#pcefcf9a1a1)" style="fill: #f0cdbb"/>
    <path d="M 335.646 51.454667 
L 358.987333 51.454667 
L 358.987333 31.127333 
L 335.646 31.127333 
L 335.646 51.454667 
" clip-path="url(#pcefcf9a1a1)" style="fill: #e8d6cc"/>
    <path d="M 358.987333 51.454667 
L 382.328667 51.454667 
L 382.328667 31.127333 
L 358.987333 31.127333 
L 358.987333 51.454667 
" clip-path="url(#pcefcf9a1a1)" style="fill: #dfdbd9"/>
    <path d="M 382.328667 51.454667 
L 405.67 51.454667 
L 405.67 31.127333 
L 382.328667 31.127333 
L 382.328667 51.454667 
" clip-path="url(#pcefcf9a1a1)" style="fill: #d9dce1"/>
    <path d="M 55.55 31.127333 
L 78.891333 31.127333 
L 78.891333 10.8 
L 55.55 10.8 
L 55.55 31.127333 
" clip-path="url(#pcefcf9a1a1)" style="fill: #b40426"/>
    <path d="M 78.891333 31.127333 
L 102.232667 31.127333 
L 102.232667 10.8 
L 78.891333 10.8 
L 78.891333 31.127333 
" clip-path="url(#pcefcf9a1a1)" style="fill: #bd1f2d"/>
    <path d="M 102.232667 31.127333 
L 125.574 31.127333 
L 125.574 10.8 
L 102.232667 10.8 
L 102.232667 31.127333 
" clip-path="url(#pcefcf9a1a1)" style="fill: #c53334"/>
    <path d="M 125.574 31.127333 
L 148.915333 31.127333 
L 148.915333 10.8 
L 125.574 10.8 
L 125.574 31.127333 
" clip-path="url(#pcefcf9a1a1)" style="fill: #cd423b"/>
    <path d="M 148.915333 31.127333 
L 172.256667 31.127333 
L 172.256667 10.8 
L 148.915333 10.8 
L 148.915333 31.127333 
" clip-path="url(#pcefcf9a1a1)" style="fill: #d55042"/>
    <path d="M 172.256667 31.127333 
L 195.598 31.127333 
L 195.598 10.8 
L 172.256667 10.8 
L 172.256667 31.127333 
" clip-path="url(#pcefcf9a1a1)" style="fill: #da5a49"/>
    <path d="M 195.598 31.127333 
L 218.939333 31.127333 
L 218.939333 10.8 
L 195.598 10.8 
L 195.598 31.127333 
" clip-path="url(#pcefcf9a1a1)" style="fill: #e16751"/>
    <path d="M 218.939333 31.127333 
L 242.280667 31.127333 
L 242.280667 10.8 
L 218.939333 10.8 
L 218.939333 31.127333 
" clip-path="url(#pcefcf9a1a1)" style="fill: #e8765c"/>
    <path d="M 242.280667 31.127333 
L 265.622 31.127333 
L 265.622 10.8 
L 242.280667 10.8 
L 242.280667 31.127333 
" clip-path="url(#pcefcf9a1a1)" style="fill: #ef886b"/>
    <path d="M 265.622 31.127333 
L 288.963333 31.127333 
L 288.963333 10.8 
L 265.622 10.8 
L 265.622 31.127333 
" clip-path="url(#pcefcf9a1a1)" style="fill: #f4987a"/>
    <path d="M 288.963333 31.127333 
L 312.304667 31.127333 
L 312.304667 10.8 
L 288.963333 10.8 
L 288.963333 31.127333 
" clip-path="url(#pcefcf9a1a1)" style="fill: #f7a98b"/>
    <path d="M 312.304667 31.127333 
L 335.646 31.127333 
L 335.646 10.8 
L 312.304667 10.8 
L 312.304667 31.127333 
" clip-path="url(#pcefcf9a1a1)" style="fill: #f7b99e"/>
    <path d="M 335.646 31.127333 
L 358.987333 31.127333 
L 358.987333 10.8 
L 335.646 10.8 
L 335.646 31.127333 
" clip-path="url(#pcefcf9a1a1)" style="fill: #f4c5ad"/>
    <path d="M 358.987333 31.127333 
L 382.328667 31.127333 
L 382.328667 10.8 
L 358.987333 10.8 
L 358.987333 31.127333 
" clip-path="url(#pcefcf9a1a1)" style="fill: #efcebd"/>
    <path d="M 382.328667 31.127333 
L 405.67 31.127333 
L 405.67 10.8 
L 382.328667 10.8 
L 382.328667 31.127333 
" clip-path="url(#pcefcf9a1a1)" style="fill: #ebd3c6"/>
   </g>
   <g id="matplotlib.axis_1">
    <g id="xtick_1">
     <g id="line2d_1">
      <defs>
       <path id="m025a297c4d" d="M 0 0 
L 0 3.5 
" style="stroke: #000000; stroke-width: 0.8"/>
      </defs>
      <g>
       <use xlink:href="#m025a297c4d" x="67.220667" y="315.71" style="stroke: #000000; stroke-width: 0.8"/>
      </g>
     </g>
     <g id="text_1">
      <!-- −10.0 -->
      <g transform="translate(51.89801 330.308438) scale(0.1 -0.1)">
       <defs>
        <path id="DejaVuSans-2212" d="M 678 2272 
L 4684 2272 
L 4684 1741 
L 678 1741 
L 678 2272 
z
" transform="scale(0.015625)"/>
        <path id="DejaVuSans-31" d="M 794 531 
L 1825 531 
L 1825 4091 
L 703 3866 
L 703 4441 
L 1819 4666 
L 2450 4666 
L 2450 531 
L 3481 531 
L 3481 0 
L 794 0 
L 794 531 
z
" transform="scale(0.015625)"/>
        <path id="DejaVuSans-30" d="M 2034 4250 
Q 1547 4250 1301 3770 
Q 1056 3291 1056 2328 
Q 1056 1369 1301 889 
Q 1547 409 2034 409 
Q 2525 409 2770 889 
Q 3016 1369 3016 2328 
Q 3016 3291 2770 3770 
Q 2525 4250 2034 4250 
z
M 2034 4750 
Q 2819 4750 3233 4129 
Q 3647 3509 3647 2328 
Q 3647 1150 3233 529 
Q 2819 -91 2034 -91 
Q 1250 -91 836 529 
Q 422 1150 422 2328 
Q 422 3509 836 4129 
Q 1250 4750 2034 4750 
z
" transform="scale(0.015625)"/>
        <path id="DejaVuSans-2e" d="M 684 794 
L 1344 794 
L 1344 0 
L 684 0 
L 684 794 
z
" transform="scale(0.015625)"/>
       </defs>
       <use xlink:href="#DejaVuSans-2212"/>
       <use xlink:href="#DejaVuSans-31" x="83.789062"/>
       <use xlink:href="#DejaVuSans-30" x="147.412109"/>
       <use xlink:href="#DejaVuSans-2e" x="211.035156"/>
       <use xlink:href="#DejaVuSans-30" x="242.822266"/>
      </g>
     </g>
    </g>
    <g id="xtick_2">
     <g id="line2d_2">
      <g>
       <use xlink:href="#m025a297c4d" x="108.068" y="315.71" style="stroke: #000000; stroke-width: 0.8"/>
      </g>
     </g>
     <g id="text_2">
      <!-- −7.5 -->
      <g transform="translate(95.926594 330.308438) scale(0.1 -0.1)">
       <defs>
        <path id="DejaVuSans-37" d="M 525 4666 
L 3525 4666 
L 3525 4397 
L 1831 0 
L 1172 0 
L 2766 4134 
L 525 4134 
L 525 4666 
z
" transform="scale(0.015625)"/>
        <path id="DejaVuSans-35" d="M 691 4666 
L 3169 4666 
L 3169 4134 
L 1269 4134 
L 1269 2991 
Q 1406 3038 1543 3061 
Q 1681 3084 1819 3084 
Q 2600 3084 3056 2656 
Q 3513 2228 3513 1497 
Q 3513 744 3044 326 
Q 2575 -91 1722 -91 
Q 1428 -91 1123 -41 
Q 819 9 494 109 
L 494 744 
Q 775 591 1075 516 
Q 1375 441 1709 441 
Q 2250 441 2565 725 
Q 2881 1009 2881 1497 
Q 2881 1984 2565 2268 
Q 2250 2553 1709 2553 
Q 1456 2553 1204 2497 
Q 953 2441 691 2322 
L 691 4666 
z
" transform="scale(0.015625)"/>
       </defs>
       <use xlink:href="#DejaVuSans-2212"/>
       <use xlink:href="#DejaVuSans-37" x="83.789062"/>
       <use xlink:href="#DejaVuSans-2e" x="147.412109"/>
       <use xlink:href="#DejaVuSans-35" x="179.199219"/>
      </g>
     </g>
    </g>
    <g id="xtick_3">
     <g id="line2d_3">
      <g>
       <use xlink:href="#m025a297c4d" x="148.915333" y="315.71" style="stroke: #000000; stroke-width: 0.8"/>
      </g>
     </g>
     <g id="text_3">
      <!-- −5.0 -->
      <g transform="translate(136.773927 330.308438) scale(0.1 -0.1)">
       <use xlink:href="#DejaVuSans-2212"/>
       <use xlink:href="#DejaVuSans-35" x="83.789062"/>
       <use xlink:href="#DejaVuSans-2e" x="147.412109"/>
       <use xlink:href="#DejaVuSans-30" x="179.199219"/>
      </g>
     </g>
    </g>
    <g id="xtick_4">
     <g id="line2d_4">
      <g>
       <use xlink:href="#m025a297c4d" x="189.762667" y="315.71" style="stroke: #000000; stroke-width: 0.8"/>
      </g>
     </g>
     <g id="text_4">
      <!-- −2.5 -->
      <g transform="translate(177.62126 330.308438) scale(0.1 -0.1)">
       <defs>
        <path id="DejaVuSans-32" d="M 1228 531 
L 3431 531 
L 3431 0 
L 469 0 
L 469 531 
Q 828 903 1448 1529 
Q 2069 2156 2228 2338 
Q 2531 2678 2651 2914 
Q 2772 3150 2772 3378 
Q 2772 3750 2511 3984 
Q 2250 4219 1831 4219 
Q 1534 4219 1204 4116 
Q 875 4013 500 3803 
L 500 4441 
Q 881 4594 1212 4672 
Q 1544 4750 1819 4750 
Q 2544 4750 2975 4387 
Q 3406 4025 3406 3419 
Q 3406 3131 3298 2873 
Q 3191 2616 2906 2266 
Q 2828 2175 2409 1742 
Q 1991 1309 1228 531 
z
" transform="scale(0.015625)"/>
       </defs>
       <use xlink:href="#DejaVuSans-2212"/>
       <use xlink:href="#DejaVuSans-32" x="83.789062"/>
       <use xlink:href="#DejaVuSans-2e" x="147.412109"/>
       <use xlink:href="#DejaVuSans-35" x="179.199219"/>
      </g>
     </g>
    </g>
    <g id="xtick_5">
     <g id="line2d_5">
      <g>
       <use xlink:href="#m025a297c4d" x="230.61" y="315.71" style="stroke: #000000; stroke-width: 0.8"/>
      </g>
     </g>
     <g id="text_5">
      <!-- 0.0 -->
      <g transform="translate(222.658438 330.308438) scale(0.1 -0.1)">
       <use xlink:href="#DejaVuSans-30"/>
       <use xlink:href="#DejaVuSans-2e" x="63.623047"/>
       <use xlink:href="#DejaVuSans-30" x="95.410156"/>
      </g>
     </g>
    </g>
    <g id="xtick_6">
     <g id="line2d_6">
      <g>
       <use xlink:href="#m025a297c4d" x="271.457333" y="315.71" style="stroke: #000000; stroke-width: 0.8"/>
      </g>
     </g>
     <g id="text_6">
      <!-- 2.5 -->
      <g transform="translate(263.505771 330.308438) scale(0.1 -0.1)">
       <use xlink:href="#DejaVuSans-32"/>
       <use xlink:href="#DejaVuSans-2e" x="63.623047"/>
       <use xlink:href="#DejaVuSans-35" x="95.410156"/>
      </g>
     </g>
    </g>
    <g id="xtick_7">
     <g id="line2d_7">
      <g>
       <use xlink:href="#m025a297c4d" x="312.304667" y="315.71" style="stroke: #000000; stroke-width: 0.8"/>
      </g>
     </g>
     <g id="text_7">
      <!-- 5.0 -->
      <g transform="translate(304.353104 330.308438) scale(0.1 -0.1)">
       <use xlink:href="#DejaVuSans-35"/>
       <use xlink:href="#DejaVuSans-2e" x="63.623047"/>
       <use xlink:href="#DejaVuSans-30" x="95.410156"/>
      </g>
     </g>
    </g>
    <g id="xtick_8">
     <g id="line2d_8">
      <g>
       <use xlink:href="#m025a297c4d" x="353.152" y="315.71" style="stroke: #000000; stroke-width: 0.8"/>
      </g>
     </g>
     <g id="text_8">
      <!-- 7.5 -->
      <g transform="translate(345.200438 330.308438) scale(0.1 -0.1)">
       <use xlink:href="#DejaVuSans-37"/>
       <use xlink:href="#DejaVuSans-2e" x="63.623047"/>
       <use xlink:href="#DejaVuSans-35" x="95.410156"/>
      </g>
     </g>
    </g>
    <g id="xtick_9">
     <g id="line2d_9">
      <g>
       <use xlink:href="#m025a297c4d" x="393.999333" y="315.71" style="stroke: #000000; stroke-width: 0.8"/>
      </g>
     </g>
     <g id="text_9">
      <!-- 10.0 -->
      <g transform="translate(382.866521 330.308438) scale(0.1 -0.1)">
       <use xlink:href="#DejaVuSans-31"/>
       <use xlink:href="#DejaVuSans-30" x="63.623047"/>
       <use xlink:href="#DejaVuSans-2e" x="127.246094"/>
       <use xlink:href="#DejaVuSans-30" x="159.033203"/>
      </g>
     </g>
    </g>
    <g id="text_10">
     <!-- vertikale Geschwindigkeit $\dot{z}$ in m/s -->
     <g transform="translate(144.86 345.188125) scale(0.1 -0.1)">
      <defs>
       <path id="DejaVuSans-76" d="M 191 3500 
L 800 3500 
L 1894 563 
L 2988 3500 
L 3597 3500 
L 2284 0 
L 1503 0 
L 191 3500 
z
" transform="scale(0.015625)"/>
       <path id="DejaVuSans-65" d="M 3597 1894 
L 3597 1613 
L 953 1613 
Q 991 1019 1311 708 
Q 1631 397 2203 397 
Q 2534 397 2845 478 
Q 3156 559 3463 722 
L 3463 178 
Q 3153 47 2828 -22 
Q 2503 -91 2169 -91 
Q 1331 -91 842 396 
Q 353 884 353 1716 
Q 353 2575 817 3079 
Q 1281 3584 2069 3584 
Q 2775 3584 3186 3129 
Q 3597 2675 3597 1894 
z
M 3022 2063 
Q 3016 2534 2758 2815 
Q 2500 3097 2075 3097 
Q 1594 3097 1305 2825 
Q 1016 2553 972 2059 
L 3022 2063 
z
" transform="scale(0.015625)"/>
       <path id="DejaVuSans-72" d="M 2631 2963 
Q 2534 3019 2420 3045 
Q 2306 3072 2169 3072 
Q 1681 3072 1420 2755 
Q 1159 2438 1159 1844 
L 1159 0 
L 581 0 
L 581 3500 
L 1159 3500 
L 1159 2956 
Q 1341 3275 1631 3429 
Q 1922 3584 2338 3584 
Q 2397 3584 2469 3576 
Q 2541 3569 2628 3553 
L 2631 2963 
z
" transform="scale(0.015625)"/>
       <path id="DejaVuSans-74" d="M 1172 4494 
L 1172 3500 
L 2356 3500 
L 2356 3053 
L 1172 3053 
L 1172 1153 
Q 1172 725 1289 603 
Q 1406 481 1766 481 
L 2356 481 
L 2356 0 
L 1766 0 
Q 1100 0 847 248 
Q 594 497 594 1153 
L 594 3053 
L 172 3053 
L 172 3500 
L 594 3500 
L 594 4494 
L 1172 4494 
z
" transform="scale(0.015625)"/>
       <path id="DejaVuSans-69" d="M 603 3500 
L 1178 3500 
L 1178 0 
L 603 0 
L 603 3500 
z
M 603 4863 
L 1178 4863 
L 1178 4134 
L 603 4134 
L 603 4863 
z
" transform="scale(0.015625)"/>
       <path id="DejaVuSans-6b" d="M 581 4863 
L 1159 4863 
L 1159 1991 
L 2875 3500 
L 3609 3500 
L 1753 1863 
L 3688 0 
L 2938 0 
L 1159 1709 
L 1159 0 
L 581 0 
L 581 4863 
z
" transform="scale(0.015625)"/>
       <path id="DejaVuSans-61" d="M 2194 1759 
Q 1497 1759 1228 1600 
Q 959 1441 959 1056 
Q 959 750 1161 570 
Q 1363 391 1709 391 
Q 2188 391 2477 730 
Q 2766 1069 2766 1631 
L 2766 1759 
L 2194 1759 
z
M 3341 1997 
L 3341 0 
L 2766 0 
L 2766 531 
Q 2569 213 2275 61 
Q 1981 -91 1556 -91 
Q 1019 -91 701 211 
Q 384 513 384 1019 
Q 384 1609 779 1909 
Q 1175 2209 1959 2209 
L 2766 2209 
L 2766 2266 
Q 2766 2663 2505 2880 
Q 2244 3097 1772 3097 
Q 1472 3097 1187 3025 
Q 903 2953 641 2809 
L 641 3341 
Q 956 3463 1253 3523 
Q 1550 3584 1831 3584 
Q 2591 3584 2966 3190 
Q 3341 2797 3341 1997 
z
" transform="scale(0.015625)"/>
       <path id="DejaVuSans-6c" d="M 603 4863 
L 1178 4863 
L 1178 0 
L 603 0 
L 603 4863 
z
" transform="scale(0.015625)"/>
       <path id="DejaVuSans-20" transform="scale(0.015625)"/>
       <path id="DejaVuSans-47" d="M 3809 666 
L 3809 1919 
L 2778 1919 
L 2778 2438 
L 4434 2438 
L 4434 434 
Q 4069 175 3628 42 
Q 3188 -91 2688 -91 
Q 1594 -91 976 548 
Q 359 1188 359 2328 
Q 359 3472 976 4111 
Q 1594 4750 2688 4750 
Q 3144 4750 3555 4637 
Q 3966 4525 4313 4306 
L 4313 3634 
Q 3963 3931 3569 4081 
Q 3175 4231 2741 4231 
Q 1884 4231 1454 3753 
Q 1025 3275 1025 2328 
Q 1025 1384 1454 906 
Q 1884 428 2741 428 
Q 3075 428 3337 486 
Q 3600 544 3809 666 
z
" transform="scale(0.015625)"/>
       <path id="DejaVuSans-73" d="M 2834 3397 
L 2834 2853 
Q 2591 2978 2328 3040 
Q 2066 3103 1784 3103 
Q 1356 3103 1142 2972 
Q 928 2841 928 2578 
Q 928 2378 1081 2264 
Q 1234 2150 1697 2047 
L 1894 2003 
Q 2506 1872 2764 1633 
Q 3022 1394 3022 966 
Q 3022 478 2636 193 
Q 2250 -91 1575 -91 
Q 1294 -91 989 -36 
Q 684 19 347 128 
L 347 722 
Q 666 556 975 473 
Q 1284 391 1588 391 
Q 1994 391 2212 530 
Q 2431 669 2431 922 
Q 2431 1156 2273 1281 
Q 2116 1406 1581 1522 
L 1381 1569 
Q 847 1681 609 1914 
Q 372 2147 372 2553 
Q 372 3047 722 3315 
Q 1072 3584 1716 3584 
Q 2034 3584 2315 3537 
Q 2597 3491 2834 3397 
z
" transform="scale(0.015625)"/>
       <path id="DejaVuSans-63" d="M 3122 3366 
L 3122 2828 
Q 2878 2963 2633 3030 
Q 2388 3097 2138 3097 
Q 1578 3097 1268 2742 
Q 959 2388 959 1747 
Q 959 1106 1268 751 
Q 1578 397 2138 397 
Q 2388 397 2633 464 
Q 2878 531 3122 666 
L 3122 134 
Q 2881 22 2623 -34 
Q 2366 -91 2075 -91 
Q 1284 -91 818 406 
Q 353 903 353 1747 
Q 353 2603 823 3093 
Q 1294 3584 2113 3584 
Q 2378 3584 2631 3529 
Q 2884 3475 3122 3366 
z
" transform="scale(0.015625)"/>
       <path id="DejaVuSans-68" d="M 3513 2113 
L 3513 0 
L 2938 0 
L 2938 2094 
Q 2938 2591 2744 2837 
Q 2550 3084 2163 3084 
Q 1697 3084 1428 2787 
Q 1159 2491 1159 1978 
L 1159 0 
L 581 0 
L 581 4863 
L 1159 4863 
L 1159 2956 
Q 1366 3272 1645 3428 
Q 1925 3584 2291 3584 
Q 2894 3584 3203 3211 
Q 3513 2838 3513 2113 
z
" transform="scale(0.015625)"/>
       <path id="DejaVuSans-77" d="M 269 3500 
L 844 3500 
L 1563 769 
L 2278 3500 
L 2956 3500 
L 3675 769 
L 4391 3500 
L 4966 3500 
L 4050 0 
L 3372 0 
L 2619 2869 
L 1863 0 
L 1184 0 
L 269 3500 
z
" transform="scale(0.015625)"/>
       <path id="DejaVuSans-6e" d="M 3513 2113 
L 3513 0 
L 2938 0 
L 2938 2094 
Q 2938 2591 2744 2837 
Q 2550 3084 2163 3084 
Q 1697 3084 1428 2787 
Q 1159 2491 1159 1978 
L 1159 0 
L 581 0 
L 581 3500 
L 1159 3500 
L 1159 2956 
Q 1366 3272 1645 3428 
Q 1925 3584 2291 3584 
Q 2894 3584 3203 3211 
Q 3513 2838 3513 2113 
z
" transform="scale(0.015625)"/>
       <path id="DejaVuSans-64" d="M 2906 2969 
L 2906 4863 
L 3481 4863 
L 3481 0 
L 2906 0 
L 2906 525 
Q 2725 213 2448 61 
Q 2172 -91 1784 -91 
Q 1150 -91 751 415 
Q 353 922 353 1747 
Q 353 2572 751 3078 
Q 1150 3584 1784 3584 
Q 2172 3584 2448 3432 
Q 2725 3281 2906 2969 
z
M 947 1747 
Q 947 1113 1208 752 
Q 1469 391 1925 391 
Q 2381 391 2643 752 
Q 2906 1113 2906 1747 
Q 2906 2381 2643 2742 
Q 2381 3103 1925 3103 
Q 1469 3103 1208 2742 
Q 947 2381 947 1747 
z
" transform="scale(0.015625)"/>
       <path id="DejaVuSans-67" d="M 2906 1791 
Q 2906 2416 2648 2759 
Q 2391 3103 1925 3103 
Q 1463 3103 1205 2759 
Q 947 2416 947 1791 
Q 947 1169 1205 825 
Q 1463 481 1925 481 
Q 2391 481 2648 825 
Q 2906 1169 2906 1791 
z
M 3481 434 
Q 3481 -459 3084 -895 
Q 2688 -1331 1869 -1331 
Q 1566 -1331 1297 -1286 
Q 1028 -1241 775 -1147 
L 775 -588 
Q 1028 -725 1275 -790 
Q 1522 -856 1778 -856 
Q 2344 -856 2625 -561 
Q 2906 -266 2906 331 
L 2906 616 
Q 2728 306 2450 153 
Q 2172 0 1784 0 
Q 1141 0 747 490 
Q 353 981 353 1791 
Q 353 2603 747 3093 
Q 1141 3584 1784 3584 
Q 2172 3584 2450 3431 
Q 2728 3278 2906 2969 
L 2906 3500 
L 3481 3500 
L 3481 434 
z
" transform="scale(0.015625)"/>
       <path id="DejaVuSans-307" d="M -1894 4863 
L -1319 4863 
L -1319 4134 
L -1894 4134 
L -1894 4863 
z
M -1600 3584 
L -1600 3584 
z
" transform="scale(0.015625)"/>
       <path id="DejaVuSans-Oblique-7a" d="M 744 3500 
L 3475 3500 
L 3372 2975 
L 738 459 
L 2913 459 
L 2822 0 
L -19 0 
L 84 525 
L 2719 3041 
L 653 3041 
L 744 3500 
z
" transform="scale(0.015625)"/>
       <path id="DejaVuSans-6d" d="M 3328 2828 
Q 3544 3216 3844 3400 
Q 4144 3584 4550 3584 
Q 5097 3584 5394 3201 
Q 5691 2819 5691 2113 
L 5691 0 
L 5113 0 
L 5113 2094 
Q 5113 2597 4934 2840 
Q 4756 3084 4391 3084 
Q 3944 3084 3684 2787 
Q 3425 2491 3425 1978 
L 3425 0 
L 2847 0 
L 2847 2094 
Q 2847 2600 2669 2842 
Q 2491 3084 2119 3084 
Q 1678 3084 1418 2786 
Q 1159 2488 1159 1978 
L 1159 0 
L 581 0 
L 581 3500 
L 1159 3500 
L 1159 2956 
Q 1356 3278 1631 3431 
Q 1906 3584 2284 3584 
Q 2666 3584 2933 3390 
Q 3200 3197 3328 2828 
z
" transform="scale(0.015625)"/>
       <path id="DejaVuSans-2f" d="M 1625 4666 
L 2156 4666 
L 531 -594 
L 0 -594 
L 1625 4666 
z
" transform="scale(0.015625)"/>
      </defs>
      <use xlink:href="#DejaVuSans-76" transform="translate(0 0.828125)"/>
      <use xlink:href="#DejaVuSans-65" transform="translate(59.179688 0.828125)"/>
      <use xlink:href="#DejaVuSans-72" transform="translate(120.703125 0.828125)"/>
      <use xlink:href="#DejaVuSans-74" transform="translate(161.816406 0.828125)"/>
      <use xlink:href="#DejaVuSans-69" transform="translate(201.025391 0.828125)"/>
      <use xlink:href="#DejaVuSans-6b" transform="translate(228.808594 0.828125)"/>
      <use xlink:href="#DejaVuSans-61" transform="translate(286.71875 0.828125)"/>
      <use xlink:href="#DejaVuSans-6c" transform="translate(347.998047 0.828125)"/>
      <use xlink:href="#DejaVuSans-65" transform="translate(375.78125 0.828125)"/>
      <use xlink:href="#DejaVuSans-20" transform="translate(437.304688 0.828125)"/>
      <use xlink:href="#DejaVuSans-47" transform="translate(469.091797 0.828125)"/>
      <use xlink:href="#DejaVuSans-65" transform="translate(546.582031 0.828125)"/>
      <use xlink:href="#DejaVuSans-73" transform="translate(608.105469 0.828125)"/>
      <use xlink:href="#DejaVuSans-63" transform="translate(660.205078 0.828125)"/>
      <use xlink:href="#DejaVuSans-68" transform="translate(715.185547 0.828125)"/>
      <use xlink:href="#DejaVuSans-77" transform="translate(778.564453 0.828125)"/>
      <use xlink:href="#DejaVuSans-69" transform="translate(860.351562 0.828125)"/>
      <use xlink:href="#DejaVuSans-6e" transform="translate(888.134766 0.828125)"/>
      <use xlink:href="#DejaVuSans-64" transform="translate(951.513672 0.828125)"/>
      <use xlink:href="#DejaVuSans-69" transform="translate(1014.990234 0.828125)"/>
      <use xlink:href="#DejaVuSans-67" transform="translate(1042.773438 0.828125)"/>
      <use xlink:href="#DejaVuSans-6b" transform="translate(1106.25 0.828125)"/>
      <use xlink:href="#DejaVuSans-65" transform="translate(1164.160156 0.828125)"/>
      <use xlink:href="#DejaVuSans-69" transform="translate(1225.683594 0.828125)"/>
      <use xlink:href="#DejaVuSans-74" transform="translate(1253.466797 0.828125)"/>
      <use xlink:href="#DejaVuSans-20" transform="translate(1292.675781 0.828125)"/>
      <use xlink:href="#DejaVuSans-307" transform="translate(1382.179199 12.015625)"/>
      <use xlink:href="#DejaVuSans-Oblique-7a" transform="translate(1324.462891 0.828125)"/>
      <use xlink:href="#DejaVuSans-20" transform="translate(1376.953125 0.828125)"/>
      <use xlink:href="#DejaVuSans-69" transform="translate(1408.740234 0.828125)"/>
      <use xlink:href="#DejaVuSans-6e" transform="translate(1436.523438 0.828125)"/>
      <use xlink:href="#DejaVuSans-20" transform="translate(1499.902344 0.828125)"/>
      <use xlink:href="#DejaVuSans-6d" transform="translate(1531.689453 0.828125)"/>
      <use xlink:href="#DejaVuSans-2f" transform="translate(1629.101562 0.828125)"/>
      <use xlink:href="#DejaVuSans-73" transform="translate(1662.792969 0.828125)"/>
     </g>
    </g>
   </g>
   <g id="matplotlib.axis_2">
    <g id="ytick_1">
     <g id="line2d_10">
      <defs>
       <path id="m6b265f0a46" d="M 0 0 
L -3.5 0 
" style="stroke: #000000; stroke-width: 0.8"/>
      </defs>
      <g>
       <use xlink:href="#m6b265f0a46" x="55.55" y="312.843325" style="stroke: #000000; stroke-width: 0.8"/>
      </g>
     </g>
     <g id="text_11">
      <!-- 0.0 -->
      <g transform="translate(32.646875 316.642544) scale(0.1 -0.1)">
       <use xlink:href="#DejaVuSans-30"/>
       <use xlink:href="#DejaVuSans-2e" x="63.623047"/>
       <use xlink:href="#DejaVuSans-30" x="95.410156"/>
      </g>
     </g>
    </g>
    <g id="ytick_2">
     <g id="line2d_11">
      <g>
       <use xlink:href="#m6b265f0a46" x="55.55" y="276.358368" style="stroke: #000000; stroke-width: 0.8"/>
      </g>
     </g>
     <g id="text_12">
      <!-- 2.5 -->
      <g transform="translate(32.646875 280.157586) scale(0.1 -0.1)">
       <use xlink:href="#DejaVuSans-32"/>
       <use xlink:href="#DejaVuSans-2e" x="63.623047"/>
       <use xlink:href="#DejaVuSans-35" x="95.410156"/>
      </g>
     </g>
    </g>
    <g id="ytick_3">
     <g id="line2d_12">
      <g>
       <use xlink:href="#m6b265f0a46" x="55.55" y="239.87341" style="stroke: #000000; stroke-width: 0.8"/>
      </g>
     </g>
     <g id="text_13">
      <!-- 5.0 -->
      <g transform="translate(32.646875 243.672629) scale(0.1 -0.1)">
       <use xlink:href="#DejaVuSans-35"/>
       <use xlink:href="#DejaVuSans-2e" x="63.623047"/>
       <use xlink:href="#DejaVuSans-30" x="95.410156"/>
      </g>
     </g>
    </g>
    <g id="ytick_4">
     <g id="line2d_13">
      <g>
       <use xlink:href="#m6b265f0a46" x="55.55" y="203.388453" style="stroke: #000000; stroke-width: 0.8"/>
      </g>
     </g>
     <g id="text_14">
      <!-- 7.5 -->
      <g transform="translate(32.646875 207.187672) scale(0.1 -0.1)">
       <use xlink:href="#DejaVuSans-37"/>
       <use xlink:href="#DejaVuSans-2e" x="63.623047"/>
       <use xlink:href="#DejaVuSans-35" x="95.410156"/>
      </g>
     </g>
    </g>
    <g id="ytick_5">
     <g id="line2d_14">
      <g>
       <use xlink:href="#m6b265f0a46" x="55.55" y="166.903496" style="stroke: #000000; stroke-width: 0.8"/>
      </g>
     </g>
     <g id="text_15">
      <!-- 10.0 -->
      <g transform="translate(26.284375 170.702714) scale(0.1 -0.1)">
       <use xlink:href="#DejaVuSans-31"/>
       <use xlink:href="#DejaVuSans-30" x="63.623047"/>
       <use xlink:href="#DejaVuSans-2e" x="127.246094"/>
       <use xlink:href="#DejaVuSans-30" x="159.033203"/>
      </g>
     </g>
    </g>
    <g id="ytick_6">
     <g id="line2d_15">
      <g>
       <use xlink:href="#m6b265f0a46" x="55.55" y="130.418538" style="stroke: #000000; stroke-width: 0.8"/>
      </g>
     </g>
     <g id="text_16">
      <!-- 12.5 -->
      <g transform="translate(26.284375 134.217757) scale(0.1 -0.1)">
       <use xlink:href="#DejaVuSans-31"/>
       <use xlink:href="#DejaVuSans-32" x="63.623047"/>
       <use xlink:href="#DejaVuSans-2e" x="127.246094"/>
       <use xlink:href="#DejaVuSans-35" x="159.033203"/>
      </g>
     </g>
    </g>
    <g id="ytick_7">
     <g id="line2d_16">
      <g>
       <use xlink:href="#m6b265f0a46" x="55.55" y="93.933581" style="stroke: #000000; stroke-width: 0.8"/>
      </g>
     </g>
     <g id="text_17">
      <!-- 15.0 -->
      <g transform="translate(26.284375 97.7328) scale(0.1 -0.1)">
       <use xlink:href="#DejaVuSans-31"/>
       <use xlink:href="#DejaVuSans-35" x="63.623047"/>
       <use xlink:href="#DejaVuSans-2e" x="127.246094"/>
       <use xlink:href="#DejaVuSans-30" x="159.033203"/>
      </g>
     </g>
    </g>
    <g id="ytick_8">
     <g id="line2d_17">
      <g>
       <use xlink:href="#m6b265f0a46" x="55.55" y="57.448624" style="stroke: #000000; stroke-width: 0.8"/>
      </g>
     </g>
     <g id="text_18">
      <!-- 17.5 -->
      <g transform="translate(26.284375 61.247843) scale(0.1 -0.1)">
       <use xlink:href="#DejaVuSans-31"/>
       <use xlink:href="#DejaVuSans-37" x="63.623047"/>
       <use xlink:href="#DejaVuSans-2e" x="127.246094"/>
       <use xlink:href="#DejaVuSans-35" x="159.033203"/>
      </g>
     </g>
    </g>
    <g id="ytick_9">
     <g id="line2d_18">
      <g>
       <use xlink:href="#m6b265f0a46" x="55.55" y="20.963667" style="stroke: #000000; stroke-width: 0.8"/>
      </g>
     </g>
     <g id="text_19">
      <!-- 20.0 -->
      <g transform="translate(26.284375 24.762885) scale(0.1 -0.1)">
       <use xlink:href="#DejaVuSans-32"/>
       <use xlink:href="#DejaVuSans-30" x="63.623047"/>
       <use xlink:href="#DejaVuSans-2e" x="127.246094"/>
       <use xlink:href="#DejaVuSans-30" x="159.033203"/>
      </g>
     </g>
    </g>
    <g id="text_20">
     <!-- Rotationsgeschwindigkeit $\Omega$ in U/s -->
     <g transform="translate(20.184375 248.605) rotate(-90) scale(0.1 -0.1)">
      <defs>
       <path id="DejaVuSans-52" d="M 2841 2188 
Q 3044 2119 3236 1894 
Q 3428 1669 3622 1275 
L 4263 0 
L 3584 0 
L 2988 1197 
Q 2756 1666 2539 1819 
Q 2322 1972 1947 1972 
L 1259 1972 
L 1259 0 
L 628 0 
L 628 4666 
L 2053 4666 
Q 2853 4666 3247 4331 
Q 3641 3997 3641 3322 
Q 3641 2881 3436 2590 
Q 3231 2300 2841 2188 
z
M 1259 4147 
L 1259 2491 
L 2053 2491 
Q 2509 2491 2742 2702 
Q 2975 2913 2975 3322 
Q 2975 3731 2742 3939 
Q 2509 4147 2053 4147 
L 1259 4147 
z
" transform="scale(0.015625)"/>
       <path id="DejaVuSans-6f" d="M 1959 3097 
Q 1497 3097 1228 2736 
Q 959 2375 959 1747 
Q 959 1119 1226 758 
Q 1494 397 1959 397 
Q 2419 397 2687 759 
Q 2956 1122 2956 1747 
Q 2956 2369 2687 2733 
Q 2419 3097 1959 3097 
z
M 1959 3584 
Q 2709 3584 3137 3096 
Q 3566 2609 3566 1747 
Q 3566 888 3137 398 
Q 2709 -91 1959 -91 
Q 1206 -91 779 398 
Q 353 888 353 1747 
Q 353 2609 779 3096 
Q 1206 3584 1959 3584 
z
" transform="scale(0.015625)"/>
       <path id="DejaVuSans-3a9" d="M 4647 556 
L 4647 0 
L 2772 0 
L 2772 556 
Q 3325 859 3634 1378 
Q 3944 1897 3944 2528 
Q 3944 3278 3531 3731 
Q 3119 4184 2444 4184 
Q 1769 4184 1355 3729 
Q 941 3275 941 2528 
Q 941 1897 1250 1378 
Q 1563 859 2119 556 
L 2119 0 
L 244 0 
L 244 556 
L 1241 556 
Q 747 991 519 1456 
Q 294 1922 294 2497 
Q 294 3491 894 4106 
Q 1491 4722 2444 4722 
Q 3391 4722 3994 4106 
Q 4594 3494 4594 2528 
Q 4594 1922 4372 1459 
Q 4150 997 3647 556 
L 4647 556 
z
" transform="scale(0.015625)"/>
       <path id="DejaVuSans-55" d="M 556 4666 
L 1191 4666 
L 1191 1831 
Q 1191 1081 1462 751 
Q 1734 422 2344 422 
Q 2950 422 3222 751 
Q 3494 1081 3494 1831 
L 3494 4666 
L 4128 4666 
L 4128 1753 
Q 4128 841 3676 375 
Q 3225 -91 2344 -91 
Q 1459 -91 1007 375 
Q 556 841 556 1753 
L 556 4666 
z
" transform="scale(0.015625)"/>
      </defs>
      <use xlink:href="#DejaVuSans-52" transform="translate(0 0.015625)"/>
      <use xlink:href="#DejaVuSans-6f" transform="translate(69.482422 0.015625)"/>
      <use xlink:href="#DejaVuSans-74" transform="translate(130.664062 0.015625)"/>
      <use xlink:href="#DejaVuSans-61" transform="translate(169.873047 0.015625)"/>
      <use xlink:href="#DejaVuSans-74" transform="translate(231.152344 0.015625)"/>
      <use xlink:href="#DejaVuSans-69" transform="translate(270.361328 0.015625)"/>
      <use xlink:href="#DejaVuSans-6f" transform="translate(298.144531 0.015625)"/>
      <use xlink:href="#DejaVuSans-6e" transform="translate(359.326172 0.015625)"/>
      <use xlink:href="#DejaVuSans-73" transform="translate(422.705078 0.015625)"/>
      <use xlink:href="#DejaVuSans-67" transform="translate(474.804688 0.015625)"/>
      <use xlink:href="#DejaVuSans-65" transform="translate(538.28125 0.015625)"/>
      <use xlink:href="#DejaVuSans-73" transform="translate(599.804688 0.015625)"/>
      <use xlink:href="#DejaVuSans-63" transform="translate(651.904297 0.015625)"/>
      <use xlink:href="#DejaVuSans-68" transform="translate(706.884766 0.015625)"/>
      <use xlink:href="#DejaVuSans-77" transform="translate(770.263672 0.015625)"/>
      <use xlink:href="#DejaVuSans-69" transform="translate(852.050781 0.015625)"/>
      <use xlink:href="#DejaVuSans-6e" transform="translate(879.833984 0.015625)"/>
      <use xlink:href="#DejaVuSans-64" transform="translate(943.212891 0.015625)"/>
      <use xlink:href="#DejaVuSans-69" transform="translate(1006.689453 0.015625)"/>
      <use xlink:href="#DejaVuSans-67" transform="translate(1034.472656 0.015625)"/>
      <use xlink:href="#DejaVuSans-6b" transform="translate(1097.949219 0.015625)"/>
      <use xlink:href="#DejaVuSans-65" transform="translate(1155.859375 0.015625)"/>
      <use xlink:href="#DejaVuSans-69" transform="translate(1217.382812 0.015625)"/>
      <use xlink:href="#DejaVuSans-74" transform="translate(1245.166016 0.015625)"/>
      <use xlink:href="#DejaVuSans-20" transform="translate(1284.375 0.015625)"/>
      <use xlink:href="#DejaVuSans-3a9" transform="translate(1316.162109 0.015625)"/>
      <use xlink:href="#DejaVuSans-20" transform="translate(1392.578125 0.015625)"/>
      <use xlink:href="#DejaVuSans-69" transform="translate(1424.365234 0.015625)"/>
      <use xlink:href="#DejaVuSans-6e" transform="translate(1452.148438 0.015625)"/>
      <use xlink:href="#DejaVuSans-20" transform="translate(1515.527344 0.015625)"/>
      <use xlink:href="#DejaVuSans-55" transform="translate(1547.314453 0.015625)"/>
      <use xlink:href="#DejaVuSans-2f" transform="translate(1620.507812 0.015625)"/>
      <use xlink:href="#DejaVuSans-73" transform="translate(1654.199219 0.015625)"/>
     </g>
    </g>
   </g>
   <g id="patch_3">
    <path d="M 55.55 315.71 
L 55.55 10.8 
" style="fill: none; stroke: #000000; stroke-width: 0.8; stroke-linejoin: miter; stroke-linecap: square"/>
   </g>
   <g id="patch_4">
    <path d="M 405.67 315.71 
L 405.67 10.8 
" style="fill: none; stroke: #000000; stroke-width: 0.8; stroke-linejoin: miter; stroke-linecap: square"/>
   </g>
   <g id="patch_5">
    <path d="M 55.55 315.71 
L 405.67 315.71 
" style="fill: none; stroke: #000000; stroke-width: 0.8; stroke-linejoin: miter; stroke-linecap: square"/>
   </g>
   <g id="patch_6">
    <path d="M 55.55 10.8 
L 405.67 10.8 
" style="fill: none; stroke: #000000; stroke-width: 0.8; stroke-linejoin: miter; stroke-linecap: square"/>
   </g>
  </g>
  <g id="axes_2">
   <g id="patch_7">
    <path d="M 427.5525 315.71 
L 442.798 315.71 
L 442.798 10.8 
L 427.5525 10.8 
z
" style="fill: #ffffff"/>
   </g>
   <image xlink:href="data:image/png;base64,
iVBORw0KGgoAAAANSUhEUgAAABUAAAGnCAYAAABYYhxcAAACDElEQVR4nO2a220EMQwDbcNdpYUUnb6S200T5MdgpAIEcfmQfLj99f3zrnDdfU6658p3XGvdfXah6TbDb02a73sPB75aUvJA6Ux6CpICwQdN6ibqcLy/K9FHIYoz6URfvCnIUaCrb6IvXa0dVXlGUuCDiHLrFDSpPPnV3r+FniD4nEkrecqB3/J+oelEX7xax0S85xDVOc/jPfXR19j7KJ0WmnLgc6Kvk/ycQMFMKk9+9ztqiMpX63WSb8qBzznP5TrlTDqOylfrdZJvOkQVmnLg7x3/S+8QVahS8mPY1xOVb1qCv8ySIhGl9v49ap1yJEVylFpSoEBxex9EFMdRndcJBr5bUiD4ja4g+G5HyeFzJIW6UDCTVpKfQxRnUnn0qSdFwX/iTUmOejlEYSZ985KSw+dIauCPTsOl1ylHUoVj4i4OfI6k3I5ySwoUKAsjKfnRSyKqEH0c+PLoc8PneJ+0ox4OUero0yc/ZdIOUWqbciRFgg+S1BAVLo73Qcm/HoykKo5S6xRFFAX+q/Y+KPpetffl0UdiXx19IPik6FMHysu5pQrftML+OGp2VLhAOwrkKIyk5I6aHRVvytEp58E78CnwOT8gyokC7ajOih6iwtUh6vkMUeEaR3EmVe8okvfdz0i1pEDwQZJqECUPFBD8D0andqIokz5/jeT/NcMvSarwTVHwKdHndtQ/zpRZOMI6GbwAAAAASUVORK5CYII=" id="imaged1a8811a48" transform="scale(1 -1) translate(0 -304.56)" x="427.68" y="-10.8" width="15.12" height="304.56"/>
   <g id="matplotlib.axis_3"/>
   <g id="matplotlib.axis_4">
    <g id="ytick_10">
     <g id="line2d_19">
      <defs>
       <path id="mc8067a39b2" d="M 0 0 
L 3.5 0 
" style="stroke: #000000; stroke-width: 0.8"/>
      </defs>
      <g>
       <use xlink:href="#mc8067a39b2" x="442.798" y="175.750519" style="stroke: #000000; stroke-width: 0.8"/>
      </g>
     </g>
     <g id="text_21">
      <!-- $\mathdefault{10^{1}}$ -->
      <g transform="translate(449.798 179.549738) scale(0.1 -0.1)">
       <use xlink:href="#DejaVuSans-31" transform="translate(0 0.684375)"/>
       <use xlink:href="#DejaVuSans-30" transform="translate(63.623047 0.684375)"/>
       <use xlink:href="#DejaVuSans-31" transform="translate(128.203125 38.965625) scale(0.7)"/>
      </g>
     </g>
    </g>
    <g id="ytick_11">
     <g id="line2d_20">
      <defs>
       <path id="mebfce6ba74" d="M 0 0 
L 2 0 
" style="stroke: #000000; stroke-width: 0.6"/>
      </defs>
      <g>
       <use xlink:href="#mebfce6ba74" x="442.798" y="294.29178" style="stroke: #000000; stroke-width: 0.6"/>
      </g>
     </g>
    </g>
    <g id="ytick_12">
     <g id="line2d_21">
      <g>
       <use xlink:href="#mebfce6ba74" x="442.798" y="263.11135" style="stroke: #000000; stroke-width: 0.6"/>
      </g>
     </g>
     <g id="text_22">
      <!-- $\mathdefault{6\times10^{0}}$ -->
      <g transform="translate(448.198 266.910568) scale(0.1 -0.1)">
       <defs>
        <path id="DejaVuSans-36" d="M 2113 2584 
Q 1688 2584 1439 2293 
Q 1191 2003 1191 1497 
Q 1191 994 1439 701 
Q 1688 409 2113 409 
Q 2538 409 2786 701 
Q 3034 994 3034 1497 
Q 3034 2003 2786 2293 
Q 2538 2584 2113 2584 
z
M 3366 4563 
L 3366 3988 
Q 3128 4100 2886 4159 
Q 2644 4219 2406 4219 
Q 1781 4219 1451 3797 
Q 1122 3375 1075 2522 
Q 1259 2794 1537 2939 
Q 1816 3084 2150 3084 
Q 2853 3084 3261 2657 
Q 3669 2231 3669 1497 
Q 3669 778 3244 343 
Q 2819 -91 2113 -91 
Q 1303 -91 875 529 
Q 447 1150 447 2328 
Q 447 3434 972 4092 
Q 1497 4750 2381 4750 
Q 2619 4750 2861 4703 
Q 3103 4656 3366 4563 
z
" transform="scale(0.015625)"/>
        <path id="DejaVuSans-d7" d="M 4488 3438 
L 3059 2003 
L 4488 575 
L 4116 197 
L 2681 1631 
L 1247 197 
L 878 575 
L 2303 2003 
L 878 3438 
L 1247 3816 
L 2681 2381 
L 4116 3816 
L 4488 3438 
z
" transform="scale(0.015625)"/>
       </defs>
       <use xlink:href="#DejaVuSans-36" transform="translate(0 0.765625)"/>
       <use xlink:href="#DejaVuSans-d7" transform="translate(83.105469 0.765625)"/>
       <use xlink:href="#DejaVuSans-31" transform="translate(186.376953 0.765625)"/>
       <use xlink:href="#DejaVuSans-30" transform="translate(250 0.765625)"/>
       <use xlink:href="#DejaVuSans-30" transform="translate(314.580078 39.046875) scale(0.7)"/>
      </g>
     </g>
    </g>
    <g id="ytick_13">
     <g id="line2d_22">
      <g>
       <use xlink:href="#mebfce6ba74" x="442.798" y="236.748672" style="stroke: #000000; stroke-width: 0.6"/>
      </g>
     </g>
    </g>
    <g id="ytick_14">
     <g id="line2d_23">
      <g>
       <use xlink:href="#mebfce6ba74" x="442.798" y="213.912281" style="stroke: #000000; stroke-width: 0.6"/>
      </g>
     </g>
    </g>
    <g id="ytick_15">
     <g id="line2d_24">
      <g>
       <use xlink:href="#mebfce6ba74" x="442.798" y="193.769157" style="stroke: #000000; stroke-width: 0.6"/>
      </g>
     </g>
    </g>
    <g id="ytick_16">
     <g id="line2d_25">
      <g>
       <use xlink:href="#mebfce6ba74" x="442.798" y="57.209258" style="stroke: #000000; stroke-width: 0.6"/>
      </g>
     </g>
     <g id="text_23">
      <!-- $\mathdefault{2\times10^{1}}$ -->
      <g transform="translate(448.198 61.008477) scale(0.1 -0.1)">
       <use xlink:href="#DejaVuSans-32" transform="translate(0 0.684375)"/>
       <use xlink:href="#DejaVuSans-d7" transform="translate(83.105469 0.684375)"/>
       <use xlink:href="#DejaVuSans-31" transform="translate(186.376953 0.684375)"/>
       <use xlink:href="#DejaVuSans-30" transform="translate(250 0.684375)"/>
       <use xlink:href="#DejaVuSans-31" transform="translate(314.580078 38.965625) scale(0.7)"/>
      </g>
     </g>
    </g>
   </g>
   <g id="LineCollection_1"/>
   <g id="patch_8">
    <path d="M 427.5525 315.71 
L 435.17525 315.71 
L 442.798 315.71 
L 442.798 10.8 
L 435.17525 10.8 
L 427.5525 10.8 
L 427.5525 315.71 
z
" style="fill: none; stroke: #000000; stroke-width: 0.8; stroke-linejoin: miter; stroke-linecap: square"/>
   </g>
  </g>
 </g>
 <defs>
  <clipPath id="pcefcf9a1a1">
   <rect x="55.55" y="10.8" width="350.12" height="304.91"/>
  </clipPath>
 </defs>
</svg>
